%!PS-Adobe-3.0
%%Creator: PCBNEW
%%CreationDate: Sat Mar 26 23:59:07 2022
%%Title: C:\Users\francisco.alvarez\OneDrive - Tarlogic Security S.L\Documentos\hardware\pulse\GBR\pulsera_wifi-NPTH-drl_map.ps
%%Pages: 1
%%PageOrder: Ascend
%%BoundingBox: 0 0 596 842
%%DocumentMedia: A4 595 842 0 () ()
%%Orientation: Landscape
%%EndComments
%%BeginProlog
/line { newpath moveto lineto stroke } bind def
/cir0 { newpath 0 360 arc stroke } bind def
/cir1 { newpath 0 360 arc gsave fill grestore stroke } bind def
/cir2 { newpath 0 360 arc gsave fill grestore stroke } bind def
/arc0 { newpath arc stroke } bind def
/arc1 { newpath 4 index 4 index moveto arc closepath gsave fill
    grestore stroke } bind def
/arc2 { newpath 4 index 4 index moveto arc closepath gsave fill
    grestore stroke } bind def
/poly0 { stroke } bind def
/poly1 { closepath gsave fill grestore stroke } bind def
/poly2 { closepath gsave fill grestore stroke } bind def
/rect0 { rectstroke } bind def
/rect1 { rectfill } bind def
/rect2 { rectfill } bind def
/linemode0 { 0 setlinecap 0 setlinejoin 0 setlinewidth } bind def
/linemode1 { 1 setlinecap 1 setlinejoin } bind def
/dashedline { [200] 100 setdash } bind def
/solidline { [] 0 setdash } bind def
/phantomshow { moveto
    /KicadFont findfont 0.000001 scalefont setfont
    show } bind def
/textshow { gsave
    findfont exch scalefont setfont concat 1 scale 0 0 moveto show
    } bind def
/reencodefont {
  findfont dup length dict begin
  { 1 index /FID ne
    { def }
    { pop pop } ifelse
  } forall
  /Encoding ISOLatin1Encoding def
  currentdict
  end } bind def
/KicadFont /Helvetica reencodefont definefont pop
/KicadFont-Bold /Helvetica-Bold reencodefont definefont pop
/KicadFont-Oblique /Helvetica-Oblique reencodefont definefont pop
/KicadFont-BoldOblique /Helvetica-BoldOblique reencodefont definefont pop
%%EndProlog
%%Page: 1 1
%%BeginPageSetup
gsave
0.0072 0.0072 scale
linemode1
82680 0 translate 90 rotate
100.86 setlinewidth
%%EndPageSetup
0 0 0 setrgbcolor
39.7088 setlinewidth
newpath
23719.8 37028.9 moveto
23719.8 78723.1 lineto
stroke
0 0 0 setrgbcolor
newpath
93210.2 37028.9 moveto
23719.8 37028.9 lineto
stroke
0 0 0 setrgbcolor
newpath
93210.2 78723.1 moveto
93210.2 37028.9 lineto
stroke
0 0 0 setrgbcolor
newpath
23719.8 78723.1 moveto
93210.2 78723.1 lineto
stroke
78.7394 setlinewidth
118.11 setlinewidth
0 0 0 setrgbcolor
0 0 0 setrgbcolor
newpath
24827.6 35175.5 moveto
24827.6 36356.6 lineto
25108.8 36356.6 lineto
25277.5 36300.3 lineto
25390 36187.9 lineto
25446.3 36075.4 lineto
25502.5 35850.4 lineto
25502.5 35681.7 lineto
25446.3 35456.7 lineto
25390 35344.2 lineto
25277.5 35231.7 lineto
25108.8 35175.5 lineto
24827.6 35175.5 lineto
stroke
newpath
26008.7 35175.5 moveto
26008.7 35962.9 lineto
stroke
newpath
26008.7 35737.9 moveto
26064.9 35850.4 lineto
26121.2 35906.6 lineto
26233.7 35962.9 lineto
26346.1 35962.9 lineto
stroke
newpath
26739.8 35175.5 moveto
26739.8 35962.9 lineto
stroke
newpath
26739.8 36356.6 moveto
26683.6 36300.3 lineto
26739.8 36244.1 lineto
26796.1 36300.3 lineto
26739.8 36356.6 lineto
26739.8 36244.1 lineto
stroke
newpath
27471 35175.5 moveto
27358.5 35231.7 lineto
27302.3 35344.2 lineto
27302.3 36356.6 lineto
stroke
newpath
28089.7 35175.5 moveto
27977.2 35231.7 lineto
27921 35344.2 lineto
27921 36356.6 lineto
stroke
newpath
29439.5 35175.5 moveto
29439.5 36356.6 lineto
29833.2 35512.9 lineto
30226.9 36356.6 lineto
30226.9 35175.5 lineto
stroke
newpath
31295.5 35175.5 moveto
31295.5 35794.2 lineto
31239.3 35906.6 lineto
31126.8 35962.9 lineto
30901.8 35962.9 lineto
30789.3 35906.6 lineto
stroke
newpath
31295.5 35231.7 moveto
31183 35175.5 lineto
30901.8 35175.5 lineto
30789.3 35231.7 lineto
30733.1 35344.2 lineto
30733.1 35456.7 lineto
30789.3 35569.2 lineto
30901.8 35625.4 lineto
31183 35625.4 lineto
31295.5 35681.7 lineto
stroke
newpath
31858 35962.9 moveto
31858 34781.8 lineto
stroke
newpath
31858 35906.6 moveto
31970.4 35962.9 lineto
32195.4 35962.9 lineto
32307.9 35906.6 lineto
32364.1 35850.4 lineto
32420.4 35737.9 lineto
32420.4 35400.5 lineto
32364.1 35288 lineto
32307.9 35231.7 lineto
32195.4 35175.5 lineto
31970.4 35175.5 lineto
31858 35231.7 lineto
stroke
newpath
32926.6 35288 moveto
32982.8 35231.7 lineto
32926.6 35175.5 lineto
32870.3 35231.7 lineto
32926.6 35288 lineto
32926.6 35175.5 lineto
stroke
newpath
32926.6 35906.6 moveto
32982.8 35850.4 lineto
32926.6 35794.2 lineto
32870.3 35850.4 lineto
32926.6 35906.6 lineto
32926.6 35794.2 lineto
stroke
showpage
grestore
%%EOF
