G04 #@! TF.GenerationSoftware,KiCad,Pcbnew,(5.1.10)-1*
G04 #@! TF.CreationDate,2022-03-26T23:59:02+01:00*
G04 #@! TF.ProjectId,pulsera_wifi,70756c73-6572-4615-9f77-6966692e6b69,rev?*
G04 #@! TF.SameCoordinates,Original*
G04 #@! TF.FileFunction,Legend,Top*
G04 #@! TF.FilePolarity,Positive*
%FSLAX46Y46*%
G04 Gerber Fmt 4.6, Leading zero omitted, Abs format (unit mm)*
G04 Created by KiCad (PCBNEW (5.1.10)-1) date 2022-03-26 23:59:02*
%MOMM*%
%LPD*%
G01*
G04 APERTURE LIST*
%ADD10C,0.120000*%
%ADD11C,0.100000*%
%ADD12C,0.150000*%
%ADD13C,0.200000*%
G04 APERTURE END LIST*
D10*
X107951000Y-99539359D02*
X107951000Y-99846641D01*
X108711000Y-99539359D02*
X108711000Y-99846641D01*
X93420664Y-107675000D02*
X93636336Y-107675000D01*
X93420664Y-106955000D02*
X93636336Y-106955000D01*
X83546500Y-98246500D02*
X82486500Y-98246500D01*
X83546500Y-97186500D02*
X83546500Y-98246500D01*
X83546500Y-96186500D02*
X81426500Y-96186500D01*
X81426500Y-96186500D02*
X81426500Y-86126500D01*
X83546500Y-96186500D02*
X83546500Y-86126500D01*
X83546500Y-86126500D02*
X81426500Y-86126500D01*
X54625000Y-106143359D02*
X54625000Y-106450641D01*
X55385000Y-106143359D02*
X55385000Y-106450641D01*
X104642200Y-110160659D02*
X104642200Y-110467941D01*
X105402200Y-110160659D02*
X105402200Y-110467941D01*
X97392901Y-103605359D02*
X97392901Y-103912641D01*
X98152901Y-103605359D02*
X98152901Y-103912641D01*
X98152901Y-106683641D02*
X98152901Y-106376359D01*
X97392901Y-106683641D02*
X97392901Y-106376359D01*
X120746100Y-105940241D02*
X120746100Y-105632959D01*
X119986100Y-105940241D02*
X119986100Y-105632959D01*
X119193000Y-105860141D02*
X119193000Y-105552859D01*
X118433000Y-105860141D02*
X118433000Y-105552859D01*
X105932200Y-106650465D02*
X105932200Y-106866137D01*
X106652200Y-106650465D02*
X106652200Y-106866137D01*
X97997336Y-108193399D02*
X97781664Y-108193399D01*
X97997336Y-108913399D02*
X97781664Y-108913399D01*
X95982498Y-107914564D02*
X95982498Y-108130236D01*
X96702498Y-107914564D02*
X96702498Y-108130236D01*
X99402900Y-103889836D02*
X99402900Y-103674164D01*
X98682900Y-103889836D02*
X98682900Y-103674164D01*
X98682900Y-106422164D02*
X98682900Y-106637836D01*
X99402900Y-106422164D02*
X99402900Y-106637836D01*
X122250100Y-105894436D02*
X122250100Y-105678764D01*
X121530100Y-105894436D02*
X121530100Y-105678764D01*
X117776000Y-105814336D02*
X117776000Y-105598664D01*
X117056000Y-105814336D02*
X117056000Y-105598664D01*
X85436964Y-114229500D02*
X85652636Y-114229500D01*
X85436964Y-113509500D02*
X85652636Y-113509500D01*
X89418637Y-118549500D02*
X89202965Y-118549500D01*
X89418637Y-119269500D02*
X89202965Y-119269500D01*
X107223200Y-116181536D02*
X107223200Y-115965864D01*
X106503200Y-116181536D02*
X106503200Y-115965864D01*
X110303200Y-118165864D02*
X110303200Y-118381536D01*
X111023200Y-118165864D02*
X111023200Y-118381536D01*
X53713600Y-93199435D02*
X53713600Y-92983763D01*
X52993600Y-93199435D02*
X52993600Y-92983763D01*
X57263600Y-92402851D02*
X57263600Y-90980347D01*
X55443600Y-92402851D02*
X55443600Y-90980347D01*
X58556600Y-102213036D02*
X58556600Y-101997364D01*
X57836600Y-102213036D02*
X57836600Y-101997364D01*
X60160764Y-92851600D02*
X60376436Y-92851600D01*
X60160764Y-92131600D02*
X60376436Y-92131600D01*
X57836600Y-104412764D02*
X57836600Y-104628436D01*
X58556600Y-104412764D02*
X58556600Y-104628436D01*
X85879801Y-113054500D02*
X85879801Y-110769500D01*
X84409801Y-113054500D02*
X85879801Y-113054500D01*
X84409801Y-110769500D02*
X84409801Y-113054500D01*
D11*
X90427800Y-121449500D02*
G75*
G03*
X90427800Y-121449500I-50000J0D01*
G01*
X109363200Y-121053700D02*
G75*
G03*
X109363200Y-121053700I-50000J0D01*
G01*
D10*
X58253600Y-95881600D02*
X55303600Y-95881600D01*
X55853600Y-98981600D02*
X58253600Y-98981600D01*
D12*
X53603600Y-105471600D02*
X53003600Y-105471600D01*
X53003600Y-97671600D02*
X53603600Y-97671600D01*
X49503600Y-105471600D02*
X50103600Y-105471600D01*
X49503600Y-97671600D02*
X49503600Y-105471600D01*
X50103600Y-97671600D02*
X49503600Y-97671600D01*
X53603600Y-97671600D02*
X53603600Y-105471600D01*
X49203600Y-99471600D02*
X49203600Y-100471600D01*
D10*
X89704800Y-113449500D02*
X88244800Y-113449500D01*
X89704800Y-110289500D02*
X87544800Y-110289500D01*
X89704800Y-110289500D02*
X89704800Y-111219500D01*
X89704800Y-113449500D02*
X89704800Y-112519500D01*
X69493600Y-89211600D02*
X70953600Y-89211600D01*
X69493600Y-92371600D02*
X71653600Y-92371600D01*
X69493600Y-92371600D02*
X69493600Y-91441600D01*
X69493600Y-89211600D02*
X69493600Y-90141600D01*
X69493600Y-82961600D02*
X70953600Y-82961600D01*
X69493600Y-86121600D02*
X71653600Y-86121600D01*
X69493600Y-86121600D02*
X69493600Y-85191600D01*
X69493600Y-82961600D02*
X69493600Y-83891600D01*
X86164800Y-110900859D02*
X86164800Y-111208141D01*
X86924800Y-110900859D02*
X86924800Y-111208141D01*
X89134160Y-120559500D02*
X89441442Y-120559500D01*
X89134160Y-119799500D02*
X89441442Y-119799500D01*
X108443200Y-122312341D02*
X108443200Y-122005059D01*
X107683200Y-122312341D02*
X107683200Y-122005059D01*
X107043200Y-122312342D02*
X107043200Y-122005060D01*
X106283200Y-122312342D02*
X106283200Y-122005060D01*
X69147859Y-101980000D02*
X69455141Y-101980000D01*
X69147859Y-101220000D02*
X69455141Y-101220000D01*
X69108459Y-104215500D02*
X69415741Y-104215500D01*
X69108459Y-103455500D02*
X69415741Y-103455500D01*
X68999959Y-99346601D02*
X69307241Y-99346601D01*
X68999959Y-98586601D02*
X69307241Y-98586601D01*
X68914960Y-98071600D02*
X69222242Y-98071600D01*
X68914960Y-97311600D02*
X69222242Y-97311600D01*
X69222241Y-95911600D02*
X68914959Y-95911600D01*
X69222241Y-96671600D02*
X68914959Y-96671600D01*
X90412801Y-117015500D02*
X90412801Y-114565500D01*
X87192801Y-115215500D02*
X87192801Y-117015500D01*
X107163200Y-120518700D02*
X109613200Y-120518700D01*
X108963200Y-117298700D02*
X107163200Y-117298700D01*
X63657600Y-94403600D02*
X60207600Y-94403600D01*
X63657600Y-94403600D02*
X65607600Y-94403600D01*
X63657600Y-104523600D02*
X61707600Y-104523600D01*
X63657600Y-104523600D02*
X65607600Y-104523600D01*
X55184548Y-104010990D02*
G75*
G02*
X55185200Y-102511600I700652J749390D01*
G01*
X56585852Y-104010990D02*
G75*
G03*
X56585200Y-102511600I-700652J749390D01*
G01*
X97457000Y-116448900D02*
X97457000Y-120358900D01*
X99327000Y-116448900D02*
X97457000Y-116448900D01*
X99327000Y-120358900D02*
X99327000Y-116448900D01*
X95407064Y-103611000D02*
X95622736Y-103611000D01*
X95407064Y-102891000D02*
X95622736Y-102891000D01*
X94617064Y-109961000D02*
X94832736Y-109961000D01*
X94617064Y-109241000D02*
X94832736Y-109241000D01*
X93115864Y-113872600D02*
X93331536Y-113872600D01*
X93115864Y-113152600D02*
X93331536Y-113152600D01*
X101760252Y-121712900D02*
X101237748Y-121712900D01*
X101760252Y-123932900D02*
X101237748Y-123932900D01*
X103016000Y-119598900D02*
X103016000Y-117168900D01*
X99946000Y-117838900D02*
X99946000Y-119598900D01*
X95978900Y-104173000D02*
X93978900Y-104173000D01*
X94978900Y-106393000D02*
X93978900Y-106393000D01*
X95724900Y-110523000D02*
X93724900Y-110523000D01*
X94724900Y-112743000D02*
X93724900Y-112743000D01*
X101840164Y-116070901D02*
X102055836Y-116070901D01*
X101840164Y-115350901D02*
X102055836Y-115350901D01*
D13*
X98444500Y-88636000D02*
G75*
G03*
X98444500Y-88636000I-250000J0D01*
G01*
D10*
X95194500Y-89636000D02*
X97194500Y-91636000D01*
X97194500Y-98636000D02*
X97194500Y-89636000D01*
X90194500Y-98636000D02*
X97194500Y-98636000D01*
X90194500Y-89636000D02*
X90194500Y-98636000D01*
X97194500Y-89636000D02*
X90194500Y-89636000D01*
X131558000Y-94000000D02*
G75*
G03*
X131558000Y-94000000I-300000J0D01*
G01*
X132658000Y-93000000D02*
X132658000Y-95000000D01*
X128858000Y-93000000D02*
X132658000Y-93000000D01*
X128858000Y-95000000D02*
X128858000Y-93000000D01*
X132658000Y-95000000D02*
X128858000Y-95000000D01*
X124608000Y-97527164D02*
X124608000Y-97742836D01*
X125328000Y-97527164D02*
X125328000Y-97742836D01*
X123422236Y-98979400D02*
X123206564Y-98979400D01*
X123422236Y-99699400D02*
X123206564Y-99699400D01*
X121485605Y-97419740D02*
X121485605Y-97635412D01*
X122205605Y-97419740D02*
X122205605Y-97635412D01*
X113263000Y-103231836D02*
X113263000Y-103016164D01*
X112543000Y-103231836D02*
X112543000Y-103016164D01*
X109749000Y-104314164D02*
X109749000Y-104529836D01*
X110469000Y-104314164D02*
X110469000Y-104529836D01*
X103933164Y-91736500D02*
X104148836Y-91736500D01*
X103933164Y-91016500D02*
X104148836Y-91016500D01*
X104120836Y-89937000D02*
X103905164Y-89937000D01*
X104120836Y-90657000D02*
X103905164Y-90657000D01*
X112056500Y-89035836D02*
X112056500Y-88820164D01*
X111336500Y-89035836D02*
X111336500Y-88820164D01*
X113178000Y-97710164D02*
X113178000Y-97925836D01*
X113898000Y-97710164D02*
X113898000Y-97925836D01*
X112162000Y-97717664D02*
X112162000Y-97933336D01*
X112882000Y-97717664D02*
X112882000Y-97933336D01*
X116665836Y-90953000D02*
X116450164Y-90953000D01*
X116665836Y-91673000D02*
X116450164Y-91673000D01*
X105198500Y-99703836D02*
X105198500Y-99488164D01*
X104478500Y-99703836D02*
X104478500Y-99488164D01*
X116478164Y-92689000D02*
X116693836Y-92689000D01*
X116478164Y-91969000D02*
X116693836Y-91969000D01*
X107611500Y-99739336D02*
X107611500Y-99523664D01*
X106891500Y-99739336D02*
X106891500Y-99523664D01*
X116442664Y-94721000D02*
X116658336Y-94721000D01*
X116442664Y-94001000D02*
X116658336Y-94001000D01*
D11*
X110329500Y-82339000D02*
G75*
G03*
X110329500Y-82339000I-50000J0D01*
G01*
D10*
X105089000Y-81156500D02*
X105089000Y-82486500D01*
X103759000Y-81156500D02*
X105089000Y-81156500D01*
X102489000Y-81156500D02*
X102489000Y-83816500D01*
X102489000Y-83816500D02*
X82109000Y-83816500D01*
X102489000Y-81156500D02*
X82109000Y-81156500D01*
X82109000Y-81156500D02*
X82109000Y-83816500D01*
X126830000Y-78670000D02*
X126830000Y-80000000D01*
X125500000Y-78670000D02*
X126830000Y-78670000D01*
X124230000Y-78670000D02*
X124230000Y-81330000D01*
X124230000Y-81330000D02*
X111470000Y-81330000D01*
X124230000Y-78670000D02*
X111470000Y-78670000D01*
X111470000Y-78670000D02*
X111470000Y-81330000D01*
X132584500Y-126425000D02*
X131254500Y-126425000D01*
X132584500Y-125095000D02*
X132584500Y-126425000D01*
X132584500Y-123825000D02*
X129924500Y-123825000D01*
X129924500Y-123825000D02*
X129924500Y-105985000D01*
X132584500Y-123825000D02*
X132584500Y-105985000D01*
X132584500Y-105985000D02*
X129924500Y-105985000D01*
X113070500Y-96139500D02*
X113545500Y-96139500D01*
X108325500Y-90919500D02*
X108325500Y-91394500D01*
X108800500Y-90919500D02*
X108325500Y-90919500D01*
X113545500Y-90919500D02*
X113545500Y-91394500D01*
X113070500Y-90919500D02*
X113545500Y-90919500D01*
X108325500Y-96139500D02*
X108325500Y-95664500D01*
X108800500Y-96139500D02*
X108325500Y-96139500D01*
X114371501Y-109023440D02*
X114371501Y-108716158D01*
X113611501Y-109023440D02*
X113611501Y-108716158D01*
X109955359Y-115442000D02*
X110262641Y-115442000D01*
X109955359Y-114682000D02*
X110262641Y-114682000D01*
X112076500Y-99973641D02*
X112076500Y-99666359D01*
X111316500Y-99973641D02*
X111316500Y-99666359D01*
X109899500Y-85945358D02*
X109899500Y-86252640D01*
X110659500Y-85945358D02*
X110659500Y-86252640D01*
X109790500Y-99910141D02*
X109790500Y-99602859D01*
X109030500Y-99910141D02*
X109030500Y-99602859D01*
X105601500Y-99475859D02*
X105601500Y-99783141D01*
X106361500Y-99475859D02*
X106361500Y-99783141D01*
X113384500Y-85779500D02*
X113384500Y-86279500D01*
X111024500Y-85779500D02*
X111024500Y-86279500D01*
X103763000Y-94705000D02*
X104263000Y-94705000D01*
X103763000Y-97065000D02*
X104263000Y-97065000D01*
X103755000Y-92042000D02*
X104255000Y-92042000D01*
X103755000Y-94402000D02*
X104255000Y-94402000D01*
X111327800Y-114309501D02*
X112377800Y-114309501D01*
X110207800Y-114309501D02*
X109157800Y-114309501D01*
X111327800Y-109089501D02*
X112377800Y-109089501D01*
X112285500Y-100979500D02*
X109585500Y-100979500D01*
X112285500Y-103279500D02*
X112285500Y-100979500D01*
D12*
X108084880Y-102687357D02*
X107608690Y-103020690D01*
X108084880Y-103258785D02*
X107084880Y-103258785D01*
X107084880Y-102877833D01*
X107132500Y-102782595D01*
X107180119Y-102734976D01*
X107275357Y-102687357D01*
X107418214Y-102687357D01*
X107513452Y-102734976D01*
X107561071Y-102782595D01*
X107608690Y-102877833D01*
X107608690Y-103258785D01*
X107180119Y-102306404D02*
X107132500Y-102258785D01*
X107084880Y-102163547D01*
X107084880Y-101925452D01*
X107132500Y-101830214D01*
X107180119Y-101782595D01*
X107275357Y-101734976D01*
X107370595Y-101734976D01*
X107513452Y-101782595D01*
X108084880Y-102354023D01*
X108084880Y-101734976D01*
X107084880Y-101401642D02*
X107084880Y-100782595D01*
X107465833Y-101115928D01*
X107465833Y-100973071D01*
X107513452Y-100877833D01*
X107561071Y-100830214D01*
X107656309Y-100782595D01*
X107894404Y-100782595D01*
X107989642Y-100830214D01*
X108037261Y-100877833D01*
X108084880Y-100973071D01*
X108084880Y-101258785D01*
X108037261Y-101354023D01*
X107989642Y-101401642D01*
X90357142Y-107357142D02*
X90309523Y-107404761D01*
X90166666Y-107452380D01*
X90071428Y-107452380D01*
X89928571Y-107404761D01*
X89833333Y-107309523D01*
X89785714Y-107214285D01*
X89738095Y-107023809D01*
X89738095Y-106880952D01*
X89785714Y-106690476D01*
X89833333Y-106595238D01*
X89928571Y-106500000D01*
X90071428Y-106452380D01*
X90166666Y-106452380D01*
X90309523Y-106500000D01*
X90357142Y-106547619D01*
X90690476Y-106452380D02*
X91309523Y-106452380D01*
X90976190Y-106833333D01*
X91119047Y-106833333D01*
X91214285Y-106880952D01*
X91261904Y-106928571D01*
X91309523Y-107023809D01*
X91309523Y-107261904D01*
X91261904Y-107357142D01*
X91214285Y-107404761D01*
X91119047Y-107452380D01*
X90833333Y-107452380D01*
X90738095Y-107404761D01*
X90690476Y-107357142D01*
X91642857Y-106452380D02*
X92261904Y-106452380D01*
X91928571Y-106833333D01*
X92071428Y-106833333D01*
X92166666Y-106880952D01*
X92214285Y-106928571D01*
X92261904Y-107023809D01*
X92261904Y-107261904D01*
X92214285Y-107357142D01*
X92166666Y-107404761D01*
X92071428Y-107452380D01*
X91785714Y-107452380D01*
X91690476Y-107404761D01*
X91642857Y-107357142D01*
X82153166Y-98698880D02*
X82153166Y-99413166D01*
X82105547Y-99556023D01*
X82010309Y-99651261D01*
X81867452Y-99698880D01*
X81772214Y-99698880D01*
X82534119Y-98698880D02*
X83153166Y-98698880D01*
X82819833Y-99079833D01*
X82962690Y-99079833D01*
X83057928Y-99127452D01*
X83105547Y-99175071D01*
X83153166Y-99270309D01*
X83153166Y-99508404D01*
X83105547Y-99603642D01*
X83057928Y-99651261D01*
X82962690Y-99698880D01*
X82676976Y-99698880D01*
X82581738Y-99651261D01*
X82534119Y-99603642D01*
X52023809Y-108452380D02*
X51690476Y-107976190D01*
X51452380Y-108452380D02*
X51452380Y-107452380D01*
X51833333Y-107452380D01*
X51928571Y-107500000D01*
X51976190Y-107547619D01*
X52023809Y-107642857D01*
X52023809Y-107785714D01*
X51976190Y-107880952D01*
X51928571Y-107928571D01*
X51833333Y-107976190D01*
X51452380Y-107976190D01*
X52404761Y-108404761D02*
X52547619Y-108452380D01*
X52785714Y-108452380D01*
X52880952Y-108404761D01*
X52928571Y-108357142D01*
X52976190Y-108261904D01*
X52976190Y-108166666D01*
X52928571Y-108071428D01*
X52880952Y-108023809D01*
X52785714Y-107976190D01*
X52595238Y-107928571D01*
X52500000Y-107880952D01*
X52452380Y-107833333D01*
X52404761Y-107738095D01*
X52404761Y-107642857D01*
X52452380Y-107547619D01*
X52500000Y-107500000D01*
X52595238Y-107452380D01*
X52833333Y-107452380D01*
X52976190Y-107500000D01*
X53404761Y-108452380D02*
X53404761Y-107452380D01*
X53833333Y-108452380D02*
X53833333Y-107928571D01*
X53785714Y-107833333D01*
X53690476Y-107785714D01*
X53547619Y-107785714D01*
X53452380Y-107833333D01*
X53404761Y-107880952D01*
X54309523Y-108452380D02*
X54309523Y-107785714D01*
X54309523Y-107452380D02*
X54261904Y-107500000D01*
X54309523Y-107547619D01*
X54357142Y-107500000D01*
X54309523Y-107452380D01*
X54309523Y-107547619D01*
X55166666Y-108404761D02*
X55071428Y-108452380D01*
X54880952Y-108452380D01*
X54785714Y-108404761D01*
X54738095Y-108309523D01*
X54738095Y-107928571D01*
X54785714Y-107833333D01*
X54880952Y-107785714D01*
X55071428Y-107785714D01*
X55166666Y-107833333D01*
X55214285Y-107928571D01*
X55214285Y-108023809D01*
X54738095Y-108119047D01*
X55785714Y-108452380D02*
X55690476Y-108404761D01*
X55642857Y-108309523D01*
X55642857Y-107452380D01*
X56595238Y-108452380D02*
X56595238Y-107452380D01*
X56595238Y-108404761D02*
X56500000Y-108452380D01*
X56309523Y-108452380D01*
X56214285Y-108404761D01*
X56166666Y-108357142D01*
X56119047Y-108261904D01*
X56119047Y-107976190D01*
X56166666Y-107880952D01*
X56214285Y-107833333D01*
X56309523Y-107785714D01*
X56500000Y-107785714D01*
X56595238Y-107833333D01*
X57595238Y-108452380D02*
X57023809Y-108452380D01*
X57309523Y-108452380D02*
X57309523Y-107452380D01*
X57214285Y-107595238D01*
X57119047Y-107690476D01*
X57023809Y-107738095D01*
X105452380Y-108142857D02*
X104976190Y-108476190D01*
X105452380Y-108714285D02*
X104452380Y-108714285D01*
X104452380Y-108333333D01*
X104500000Y-108238095D01*
X104547619Y-108190476D01*
X104642857Y-108142857D01*
X104785714Y-108142857D01*
X104880952Y-108190476D01*
X104928571Y-108238095D01*
X104976190Y-108333333D01*
X104976190Y-108714285D01*
X105452380Y-107190476D02*
X105452380Y-107761904D01*
X105452380Y-107476190D02*
X104452380Y-107476190D01*
X104595238Y-107571428D01*
X104690476Y-107666666D01*
X104738095Y-107761904D01*
X105452380Y-106714285D02*
X105452380Y-106523809D01*
X105404761Y-106428571D01*
X105357142Y-106380952D01*
X105214285Y-106285714D01*
X105023809Y-106238095D01*
X104642857Y-106238095D01*
X104547619Y-106285714D01*
X104500000Y-106333333D01*
X104452380Y-106428571D01*
X104452380Y-106619047D01*
X104500000Y-106714285D01*
X104547619Y-106761904D01*
X104642857Y-106809523D01*
X104880952Y-106809523D01*
X104976190Y-106761904D01*
X105023809Y-106714285D01*
X105071428Y-106619047D01*
X105071428Y-106428571D01*
X105023809Y-106333333D01*
X104976190Y-106285714D01*
X104880952Y-106238095D01*
X98452380Y-98642857D02*
X97976190Y-98976190D01*
X98452380Y-99214285D02*
X97452380Y-99214285D01*
X97452380Y-98833333D01*
X97500000Y-98738095D01*
X97547619Y-98690476D01*
X97642857Y-98642857D01*
X97785714Y-98642857D01*
X97880952Y-98690476D01*
X97928571Y-98738095D01*
X97976190Y-98833333D01*
X97976190Y-99214285D01*
X98452380Y-97690476D02*
X98452380Y-98261904D01*
X98452380Y-97976190D02*
X97452380Y-97976190D01*
X97595238Y-98071428D01*
X97690476Y-98166666D01*
X97738095Y-98261904D01*
X97452380Y-97357142D02*
X97452380Y-96690476D01*
X98452380Y-97119047D01*
X98452380Y-101642857D02*
X97976190Y-101976190D01*
X98452380Y-102214285D02*
X97452380Y-102214285D01*
X97452380Y-101833333D01*
X97500000Y-101738095D01*
X97547619Y-101690476D01*
X97642857Y-101642857D01*
X97785714Y-101642857D01*
X97880952Y-101690476D01*
X97928571Y-101738095D01*
X97976190Y-101833333D01*
X97976190Y-102214285D01*
X98452380Y-100690476D02*
X98452380Y-101261904D01*
X98452380Y-100976190D02*
X97452380Y-100976190D01*
X97595238Y-101071428D01*
X97690476Y-101166666D01*
X97738095Y-101261904D01*
X97452380Y-99833333D02*
X97452380Y-100023809D01*
X97500000Y-100119047D01*
X97547619Y-100166666D01*
X97690476Y-100261904D01*
X97880952Y-100309523D01*
X98261904Y-100309523D01*
X98357142Y-100261904D01*
X98404761Y-100214285D01*
X98452380Y-100119047D01*
X98452380Y-99928571D01*
X98404761Y-99833333D01*
X98357142Y-99785714D01*
X98261904Y-99738095D01*
X98023809Y-99738095D01*
X97928571Y-99785714D01*
X97880952Y-99833333D01*
X97833333Y-99928571D01*
X97833333Y-100119047D01*
X97880952Y-100214285D01*
X97928571Y-100261904D01*
X98023809Y-100309523D01*
X121013480Y-108757957D02*
X120537290Y-109091290D01*
X121013480Y-109329385D02*
X120013480Y-109329385D01*
X120013480Y-108948433D01*
X120061100Y-108853195D01*
X120108719Y-108805576D01*
X120203957Y-108757957D01*
X120346814Y-108757957D01*
X120442052Y-108805576D01*
X120489671Y-108853195D01*
X120537290Y-108948433D01*
X120537290Y-109329385D01*
X121013480Y-107805576D02*
X121013480Y-108377004D01*
X121013480Y-108091290D02*
X120013480Y-108091290D01*
X120156338Y-108186528D01*
X120251576Y-108281766D01*
X120299195Y-108377004D01*
X121013480Y-106853195D02*
X121013480Y-107424623D01*
X121013480Y-107138909D02*
X120013480Y-107138909D01*
X120156338Y-107234147D01*
X120251576Y-107329385D01*
X120299195Y-107424623D01*
X117876580Y-108770657D02*
X117400390Y-109103990D01*
X117876580Y-109342085D02*
X116876580Y-109342085D01*
X116876580Y-108961133D01*
X116924200Y-108865895D01*
X116971819Y-108818276D01*
X117067057Y-108770657D01*
X117209914Y-108770657D01*
X117305152Y-108818276D01*
X117352771Y-108865895D01*
X117400390Y-108961133D01*
X117400390Y-109342085D01*
X117876580Y-107818276D02*
X117876580Y-108389704D01*
X117876580Y-108103990D02*
X116876580Y-108103990D01*
X117019438Y-108199228D01*
X117114676Y-108294466D01*
X117162295Y-108389704D01*
X116876580Y-107199228D02*
X116876580Y-107103990D01*
X116924200Y-107008752D01*
X116971819Y-106961133D01*
X117067057Y-106913514D01*
X117257533Y-106865895D01*
X117495628Y-106865895D01*
X117686104Y-106913514D01*
X117781342Y-106961133D01*
X117828961Y-107008752D01*
X117876580Y-107103990D01*
X117876580Y-107199228D01*
X117828961Y-107294466D01*
X117781342Y-107342085D01*
X117686104Y-107389704D01*
X117495628Y-107437323D01*
X117257533Y-107437323D01*
X117067057Y-107389704D01*
X116971819Y-107342085D01*
X116924200Y-107294466D01*
X116876580Y-107199228D01*
X108357142Y-107642857D02*
X108404761Y-107690476D01*
X108452380Y-107833333D01*
X108452380Y-107928571D01*
X108404761Y-108071428D01*
X108309523Y-108166666D01*
X108214285Y-108214285D01*
X108023809Y-108261904D01*
X107880952Y-108261904D01*
X107690476Y-108214285D01*
X107595238Y-108166666D01*
X107500000Y-108071428D01*
X107452380Y-107928571D01*
X107452380Y-107833333D01*
X107500000Y-107690476D01*
X107547619Y-107642857D01*
X107452380Y-107309523D02*
X107452380Y-106690476D01*
X107833333Y-107023809D01*
X107833333Y-106880952D01*
X107880952Y-106785714D01*
X107928571Y-106738095D01*
X108023809Y-106690476D01*
X108261904Y-106690476D01*
X108357142Y-106738095D01*
X108404761Y-106785714D01*
X108452380Y-106880952D01*
X108452380Y-107166666D01*
X108404761Y-107261904D01*
X108357142Y-107309523D01*
X107880952Y-106119047D02*
X107833333Y-106214285D01*
X107785714Y-106261904D01*
X107690476Y-106309523D01*
X107642857Y-106309523D01*
X107547619Y-106261904D01*
X107500000Y-106214285D01*
X107452380Y-106119047D01*
X107452380Y-105928571D01*
X107500000Y-105833333D01*
X107547619Y-105785714D01*
X107642857Y-105738095D01*
X107690476Y-105738095D01*
X107785714Y-105785714D01*
X107833333Y-105833333D01*
X107880952Y-105928571D01*
X107880952Y-106119047D01*
X107928571Y-106214285D01*
X107976190Y-106261904D01*
X108071428Y-106309523D01*
X108261904Y-106309523D01*
X108357142Y-106261904D01*
X108404761Y-106214285D01*
X108452380Y-106119047D01*
X108452380Y-105928571D01*
X108404761Y-105833333D01*
X108357142Y-105785714D01*
X108261904Y-105738095D01*
X108071428Y-105738095D01*
X107976190Y-105785714D01*
X107928571Y-105833333D01*
X107880952Y-105928571D01*
X90357142Y-108857142D02*
X90309523Y-108904761D01*
X90166666Y-108952380D01*
X90071428Y-108952380D01*
X89928571Y-108904761D01*
X89833333Y-108809523D01*
X89785714Y-108714285D01*
X89738095Y-108523809D01*
X89738095Y-108380952D01*
X89785714Y-108190476D01*
X89833333Y-108095238D01*
X89928571Y-108000000D01*
X90071428Y-107952380D01*
X90166666Y-107952380D01*
X90309523Y-108000000D01*
X90357142Y-108047619D01*
X90690476Y-107952380D02*
X91309523Y-107952380D01*
X90976190Y-108333333D01*
X91119047Y-108333333D01*
X91214285Y-108380952D01*
X91261904Y-108428571D01*
X91309523Y-108523809D01*
X91309523Y-108761904D01*
X91261904Y-108857142D01*
X91214285Y-108904761D01*
X91119047Y-108952380D01*
X90833333Y-108952380D01*
X90738095Y-108904761D01*
X90690476Y-108857142D01*
X91642857Y-107952380D02*
X92309523Y-107952380D01*
X91880952Y-108952380D01*
X93357142Y-108857142D02*
X93309523Y-108904761D01*
X93166666Y-108952380D01*
X93071428Y-108952380D01*
X92928571Y-108904761D01*
X92833333Y-108809523D01*
X92785714Y-108714285D01*
X92738095Y-108523809D01*
X92738095Y-108380952D01*
X92785714Y-108190476D01*
X92833333Y-108095238D01*
X92928571Y-108000000D01*
X93071428Y-107952380D01*
X93166666Y-107952380D01*
X93309523Y-108000000D01*
X93357142Y-108047619D01*
X93690476Y-107952380D02*
X94309523Y-107952380D01*
X93976190Y-108333333D01*
X94119047Y-108333333D01*
X94214285Y-108380952D01*
X94261904Y-108428571D01*
X94309523Y-108523809D01*
X94309523Y-108761904D01*
X94261904Y-108857142D01*
X94214285Y-108904761D01*
X94119047Y-108952380D01*
X93833333Y-108952380D01*
X93738095Y-108904761D01*
X93690476Y-108857142D01*
X95166666Y-107952380D02*
X94976190Y-107952380D01*
X94880952Y-108000000D01*
X94833333Y-108047619D01*
X94738095Y-108190476D01*
X94690476Y-108380952D01*
X94690476Y-108761904D01*
X94738095Y-108857142D01*
X94785714Y-108904761D01*
X94880952Y-108952380D01*
X95071428Y-108952380D01*
X95166666Y-108904761D01*
X95214285Y-108857142D01*
X95261904Y-108761904D01*
X95261904Y-108523809D01*
X95214285Y-108428571D01*
X95166666Y-108380952D01*
X95071428Y-108333333D01*
X94880952Y-108333333D01*
X94785714Y-108380952D01*
X94738095Y-108428571D01*
X94690476Y-108523809D01*
X99857142Y-101642857D02*
X99904761Y-101690476D01*
X99952380Y-101833333D01*
X99952380Y-101928571D01*
X99904761Y-102071428D01*
X99809523Y-102166666D01*
X99714285Y-102214285D01*
X99523809Y-102261904D01*
X99380952Y-102261904D01*
X99190476Y-102214285D01*
X99095238Y-102166666D01*
X99000000Y-102071428D01*
X98952380Y-101928571D01*
X98952380Y-101833333D01*
X99000000Y-101690476D01*
X99047619Y-101642857D01*
X98952380Y-101309523D02*
X98952380Y-100690476D01*
X99333333Y-101023809D01*
X99333333Y-100880952D01*
X99380952Y-100785714D01*
X99428571Y-100738095D01*
X99523809Y-100690476D01*
X99761904Y-100690476D01*
X99857142Y-100738095D01*
X99904761Y-100785714D01*
X99952380Y-100880952D01*
X99952380Y-101166666D01*
X99904761Y-101261904D01*
X99857142Y-101309523D01*
X98952380Y-99785714D02*
X98952380Y-100261904D01*
X99428571Y-100309523D01*
X99380952Y-100261904D01*
X99333333Y-100166666D01*
X99333333Y-99928571D01*
X99380952Y-99833333D01*
X99428571Y-99785714D01*
X99523809Y-99738095D01*
X99761904Y-99738095D01*
X99857142Y-99785714D01*
X99904761Y-99833333D01*
X99952380Y-99928571D01*
X99952380Y-100166666D01*
X99904761Y-100261904D01*
X99857142Y-100309523D01*
X101357142Y-107172857D02*
X101404761Y-107220476D01*
X101452380Y-107363333D01*
X101452380Y-107458571D01*
X101404761Y-107601428D01*
X101309523Y-107696666D01*
X101214285Y-107744285D01*
X101023809Y-107791904D01*
X100880952Y-107791904D01*
X100690476Y-107744285D01*
X100595238Y-107696666D01*
X100500000Y-107601428D01*
X100452380Y-107458571D01*
X100452380Y-107363333D01*
X100500000Y-107220476D01*
X100547619Y-107172857D01*
X100452380Y-106839523D02*
X100452380Y-106220476D01*
X100833333Y-106553809D01*
X100833333Y-106410952D01*
X100880952Y-106315714D01*
X100928571Y-106268095D01*
X101023809Y-106220476D01*
X101261904Y-106220476D01*
X101357142Y-106268095D01*
X101404761Y-106315714D01*
X101452380Y-106410952D01*
X101452380Y-106696666D01*
X101404761Y-106791904D01*
X101357142Y-106839523D01*
X100785714Y-105363333D02*
X101452380Y-105363333D01*
X100404761Y-105601428D02*
X101119047Y-105839523D01*
X101119047Y-105220476D01*
X122289842Y-108897657D02*
X122337461Y-108945276D01*
X122385080Y-109088133D01*
X122385080Y-109183371D01*
X122337461Y-109326228D01*
X122242223Y-109421466D01*
X122146985Y-109469085D01*
X121956509Y-109516704D01*
X121813652Y-109516704D01*
X121623176Y-109469085D01*
X121527938Y-109421466D01*
X121432700Y-109326228D01*
X121385080Y-109183371D01*
X121385080Y-109088133D01*
X121432700Y-108945276D01*
X121480319Y-108897657D01*
X121385080Y-108564323D02*
X121385080Y-107945276D01*
X121766033Y-108278609D01*
X121766033Y-108135752D01*
X121813652Y-108040514D01*
X121861271Y-107992895D01*
X121956509Y-107945276D01*
X122194604Y-107945276D01*
X122289842Y-107992895D01*
X122337461Y-108040514D01*
X122385080Y-108135752D01*
X122385080Y-108421466D01*
X122337461Y-108516704D01*
X122289842Y-108564323D01*
X121385080Y-107326228D02*
X121385080Y-107230990D01*
X121432700Y-107135752D01*
X121480319Y-107088133D01*
X121575557Y-107040514D01*
X121766033Y-106992895D01*
X122004128Y-106992895D01*
X122194604Y-107040514D01*
X122289842Y-107088133D01*
X122337461Y-107135752D01*
X122385080Y-107230990D01*
X122385080Y-107326228D01*
X122337461Y-107421466D01*
X122289842Y-107469085D01*
X122194604Y-107516704D01*
X122004128Y-107564323D01*
X121766033Y-107564323D01*
X121575557Y-107516704D01*
X121480319Y-107469085D01*
X121432700Y-107421466D01*
X121385080Y-107326228D01*
X119229142Y-108821457D02*
X119276761Y-108869076D01*
X119324380Y-109011933D01*
X119324380Y-109107171D01*
X119276761Y-109250028D01*
X119181523Y-109345266D01*
X119086285Y-109392885D01*
X118895809Y-109440504D01*
X118752952Y-109440504D01*
X118562476Y-109392885D01*
X118467238Y-109345266D01*
X118372000Y-109250028D01*
X118324380Y-109107171D01*
X118324380Y-109011933D01*
X118372000Y-108869076D01*
X118419619Y-108821457D01*
X118419619Y-108440504D02*
X118372000Y-108392885D01*
X118324380Y-108297647D01*
X118324380Y-108059552D01*
X118372000Y-107964314D01*
X118419619Y-107916695D01*
X118514857Y-107869076D01*
X118610095Y-107869076D01*
X118752952Y-107916695D01*
X119324380Y-108488123D01*
X119324380Y-107869076D01*
X119324380Y-107392885D02*
X119324380Y-107202409D01*
X119276761Y-107107171D01*
X119229142Y-107059552D01*
X119086285Y-106964314D01*
X118895809Y-106916695D01*
X118514857Y-106916695D01*
X118419619Y-106964314D01*
X118372000Y-107011933D01*
X118324380Y-107107171D01*
X118324380Y-107297647D01*
X118372000Y-107392885D01*
X118419619Y-107440504D01*
X118514857Y-107488123D01*
X118752952Y-107488123D01*
X118848190Y-107440504D01*
X118895809Y-107392885D01*
X118943428Y-107297647D01*
X118943428Y-107107171D01*
X118895809Y-107011933D01*
X118848190Y-106964314D01*
X118752952Y-106916695D01*
X83048133Y-114440642D02*
X83000514Y-114488261D01*
X82857657Y-114535880D01*
X82762419Y-114535880D01*
X82619561Y-114488261D01*
X82524323Y-114393023D01*
X82476704Y-114297785D01*
X82429085Y-114107309D01*
X82429085Y-113964452D01*
X82476704Y-113773976D01*
X82524323Y-113678738D01*
X82619561Y-113583500D01*
X82762419Y-113535880D01*
X82857657Y-113535880D01*
X83000514Y-113583500D01*
X83048133Y-113631119D01*
X84000514Y-114535880D02*
X83429085Y-114535880D01*
X83714800Y-114535880D02*
X83714800Y-113535880D01*
X83619561Y-113678738D01*
X83524323Y-113773976D01*
X83429085Y-113821595D01*
X91259134Y-119266642D02*
X91211515Y-119314261D01*
X91068658Y-119361880D01*
X90973420Y-119361880D01*
X90830562Y-119314261D01*
X90735324Y-119219023D01*
X90687705Y-119123785D01*
X90640086Y-118933309D01*
X90640086Y-118790452D01*
X90687705Y-118599976D01*
X90735324Y-118504738D01*
X90830562Y-118409500D01*
X90973420Y-118361880D01*
X91068658Y-118361880D01*
X91211515Y-118409500D01*
X91259134Y-118457119D01*
X91640086Y-118457119D02*
X91687705Y-118409500D01*
X91782943Y-118361880D01*
X92021039Y-118361880D01*
X92116277Y-118409500D01*
X92163896Y-118457119D01*
X92211515Y-118552357D01*
X92211515Y-118647595D01*
X92163896Y-118790452D01*
X91592467Y-119361880D01*
X92211515Y-119361880D01*
X107126342Y-114243366D02*
X107173961Y-114290985D01*
X107221580Y-114433842D01*
X107221580Y-114529080D01*
X107173961Y-114671938D01*
X107078723Y-114767176D01*
X106983485Y-114814795D01*
X106793009Y-114862414D01*
X106650152Y-114862414D01*
X106459676Y-114814795D01*
X106364438Y-114767176D01*
X106269200Y-114671938D01*
X106221580Y-114529080D01*
X106221580Y-114433842D01*
X106269200Y-114290985D01*
X106316819Y-114243366D01*
X106221580Y-113910033D02*
X106221580Y-113290985D01*
X106602533Y-113624319D01*
X106602533Y-113481461D01*
X106650152Y-113386223D01*
X106697771Y-113338604D01*
X106793009Y-113290985D01*
X107031104Y-113290985D01*
X107126342Y-113338604D01*
X107173961Y-113386223D01*
X107221580Y-113481461D01*
X107221580Y-113767176D01*
X107173961Y-113862414D01*
X107126342Y-113910033D01*
X111020342Y-120666666D02*
X111067961Y-120714285D01*
X111115580Y-120857142D01*
X111115580Y-120952380D01*
X111067961Y-121095238D01*
X110972723Y-121190476D01*
X110877485Y-121238095D01*
X110687009Y-121285714D01*
X110544152Y-121285714D01*
X110353676Y-121238095D01*
X110258438Y-121190476D01*
X110163200Y-121095238D01*
X110115580Y-120952380D01*
X110115580Y-120857142D01*
X110163200Y-120714285D01*
X110210819Y-120666666D01*
X110448914Y-119809523D02*
X111115580Y-119809523D01*
X110067961Y-120047619D02*
X110782247Y-120285714D01*
X110782247Y-119666666D01*
X53333333Y-91357142D02*
X53285714Y-91404761D01*
X53142857Y-91452380D01*
X53047619Y-91452380D01*
X52904761Y-91404761D01*
X52809523Y-91309523D01*
X52761904Y-91214285D01*
X52714285Y-91023809D01*
X52714285Y-90880952D01*
X52761904Y-90690476D01*
X52809523Y-90595238D01*
X52904761Y-90500000D01*
X53047619Y-90452380D01*
X53142857Y-90452380D01*
X53285714Y-90500000D01*
X53333333Y-90547619D01*
X54238095Y-90452380D02*
X53761904Y-90452380D01*
X53714285Y-90928571D01*
X53761904Y-90880952D01*
X53857142Y-90833333D01*
X54095238Y-90833333D01*
X54190476Y-90880952D01*
X54238095Y-90928571D01*
X54285714Y-91023809D01*
X54285714Y-91261904D01*
X54238095Y-91357142D01*
X54190476Y-91404761D01*
X54095238Y-91452380D01*
X53857142Y-91452380D01*
X53761904Y-91404761D01*
X53714285Y-91357142D01*
X56333333Y-88857142D02*
X56285714Y-88904761D01*
X56142857Y-88952380D01*
X56047619Y-88952380D01*
X55904761Y-88904761D01*
X55809523Y-88809523D01*
X55761904Y-88714285D01*
X55714285Y-88523809D01*
X55714285Y-88380952D01*
X55761904Y-88190476D01*
X55809523Y-88095238D01*
X55904761Y-88000000D01*
X56047619Y-87952380D01*
X56142857Y-87952380D01*
X56285714Y-88000000D01*
X56333333Y-88047619D01*
X57190476Y-87952380D02*
X57000000Y-87952380D01*
X56904761Y-88000000D01*
X56857142Y-88047619D01*
X56761904Y-88190476D01*
X56714285Y-88380952D01*
X56714285Y-88761904D01*
X56761904Y-88857142D01*
X56809523Y-88904761D01*
X56904761Y-88952380D01*
X57095238Y-88952380D01*
X57190476Y-88904761D01*
X57238095Y-88857142D01*
X57285714Y-88761904D01*
X57285714Y-88523809D01*
X57238095Y-88428571D01*
X57190476Y-88380952D01*
X57095238Y-88333333D01*
X56904761Y-88333333D01*
X56809523Y-88380952D01*
X56761904Y-88428571D01*
X56714285Y-88523809D01*
X56833333Y-101357142D02*
X56785714Y-101404761D01*
X56642857Y-101452380D01*
X56547619Y-101452380D01*
X56404761Y-101404761D01*
X56309523Y-101309523D01*
X56261904Y-101214285D01*
X56214285Y-101023809D01*
X56214285Y-100880952D01*
X56261904Y-100690476D01*
X56309523Y-100595238D01*
X56404761Y-100500000D01*
X56547619Y-100452380D01*
X56642857Y-100452380D01*
X56785714Y-100500000D01*
X56833333Y-100547619D01*
X57166666Y-100452380D02*
X57833333Y-100452380D01*
X57404761Y-101452380D01*
X60101933Y-91678742D02*
X60054314Y-91726361D01*
X59911457Y-91773980D01*
X59816219Y-91773980D01*
X59673361Y-91726361D01*
X59578123Y-91631123D01*
X59530504Y-91535885D01*
X59482885Y-91345409D01*
X59482885Y-91202552D01*
X59530504Y-91012076D01*
X59578123Y-90916838D01*
X59673361Y-90821600D01*
X59816219Y-90773980D01*
X59911457Y-90773980D01*
X60054314Y-90821600D01*
X60101933Y-90869219D01*
X60578123Y-91773980D02*
X60768600Y-91773980D01*
X60863838Y-91726361D01*
X60911457Y-91678742D01*
X61006695Y-91535885D01*
X61054314Y-91345409D01*
X61054314Y-90964457D01*
X61006695Y-90869219D01*
X60959076Y-90821600D01*
X60863838Y-90773980D01*
X60673361Y-90773980D01*
X60578123Y-90821600D01*
X60530504Y-90869219D01*
X60482885Y-90964457D01*
X60482885Y-91202552D01*
X60530504Y-91297790D01*
X60578123Y-91345409D01*
X60673361Y-91393028D01*
X60863838Y-91393028D01*
X60959076Y-91345409D01*
X61006695Y-91297790D01*
X61054314Y-91202552D01*
X56833333Y-106357142D02*
X56785714Y-106404761D01*
X56642857Y-106452380D01*
X56547619Y-106452380D01*
X56404761Y-106404761D01*
X56309523Y-106309523D01*
X56261904Y-106214285D01*
X56214285Y-106023809D01*
X56214285Y-105880952D01*
X56261904Y-105690476D01*
X56309523Y-105595238D01*
X56404761Y-105500000D01*
X56547619Y-105452380D01*
X56642857Y-105452380D01*
X56785714Y-105500000D01*
X56833333Y-105547619D01*
X57404761Y-105880952D02*
X57309523Y-105833333D01*
X57261904Y-105785714D01*
X57214285Y-105690476D01*
X57214285Y-105642857D01*
X57261904Y-105547619D01*
X57309523Y-105500000D01*
X57404761Y-105452380D01*
X57595238Y-105452380D01*
X57690476Y-105500000D01*
X57738095Y-105547619D01*
X57785714Y-105642857D01*
X57785714Y-105690476D01*
X57738095Y-105785714D01*
X57690476Y-105833333D01*
X57595238Y-105880952D01*
X57404761Y-105880952D01*
X57309523Y-105928571D01*
X57261904Y-105976190D01*
X57214285Y-106071428D01*
X57214285Y-106261904D01*
X57261904Y-106357142D01*
X57309523Y-106404761D01*
X57404761Y-106452380D01*
X57595238Y-106452380D01*
X57690476Y-106404761D01*
X57738095Y-106357142D01*
X57785714Y-106261904D01*
X57785714Y-106071428D01*
X57738095Y-105976190D01*
X57690476Y-105928571D01*
X57595238Y-105880952D01*
X82506705Y-112021880D02*
X82506705Y-111021880D01*
X82744801Y-111021880D01*
X82887658Y-111069500D01*
X82982896Y-111164738D01*
X83030515Y-111259976D01*
X83078134Y-111450452D01*
X83078134Y-111593309D01*
X83030515Y-111783785D01*
X82982896Y-111879023D01*
X82887658Y-111974261D01*
X82744801Y-112021880D01*
X82506705Y-112021880D01*
X84030515Y-112021880D02*
X83459086Y-112021880D01*
X83744801Y-112021880D02*
X83744801Y-111021880D01*
X83649562Y-111164738D01*
X83554324Y-111259976D01*
X83459086Y-111307595D01*
X90761904Y-122952380D02*
X90761904Y-121952380D01*
X91000000Y-121952380D01*
X91142857Y-122000000D01*
X91238095Y-122095238D01*
X91285714Y-122190476D01*
X91333333Y-122380952D01*
X91333333Y-122523809D01*
X91285714Y-122714285D01*
X91238095Y-122809523D01*
X91142857Y-122904761D01*
X91000000Y-122952380D01*
X90761904Y-122952380D01*
X91714285Y-122047619D02*
X91761904Y-122000000D01*
X91857142Y-121952380D01*
X92095238Y-121952380D01*
X92190476Y-122000000D01*
X92238095Y-122047619D01*
X92285714Y-122142857D01*
X92285714Y-122238095D01*
X92238095Y-122380952D01*
X91666666Y-122952380D01*
X92285714Y-122952380D01*
X109915580Y-124896795D02*
X108915580Y-124896795D01*
X108915580Y-124658700D01*
X108963200Y-124515842D01*
X109058438Y-124420604D01*
X109153676Y-124372985D01*
X109344152Y-124325366D01*
X109487009Y-124325366D01*
X109677485Y-124372985D01*
X109772723Y-124420604D01*
X109867961Y-124515842D01*
X109915580Y-124658700D01*
X109915580Y-124896795D01*
X108915580Y-123992033D02*
X108915580Y-123372985D01*
X109296533Y-123706319D01*
X109296533Y-123563461D01*
X109344152Y-123468223D01*
X109391771Y-123420604D01*
X109487009Y-123372985D01*
X109725104Y-123372985D01*
X109820342Y-123420604D01*
X109867961Y-123468223D01*
X109915580Y-123563461D01*
X109915580Y-123849176D01*
X109867961Y-123944414D01*
X109820342Y-123992033D01*
X55261904Y-95452380D02*
X55261904Y-94452380D01*
X55500000Y-94452380D01*
X55642857Y-94500000D01*
X55738095Y-94595238D01*
X55785714Y-94690476D01*
X55833333Y-94880952D01*
X55833333Y-95023809D01*
X55785714Y-95214285D01*
X55738095Y-95309523D01*
X55642857Y-95404761D01*
X55500000Y-95452380D01*
X55261904Y-95452380D01*
X56690476Y-94785714D02*
X56690476Y-95452380D01*
X56452380Y-94404761D02*
X56214285Y-95119047D01*
X56833333Y-95119047D01*
X108583980Y-120980533D02*
X109298266Y-120980533D01*
X109441123Y-121028152D01*
X109536361Y-121123390D01*
X109583980Y-121266247D01*
X109583980Y-121361485D01*
X109583980Y-119980533D02*
X109583980Y-120551961D01*
X109583980Y-120266247D02*
X108583980Y-120266247D01*
X108726838Y-120361485D01*
X108822076Y-120456723D01*
X108869695Y-120551961D01*
X51166666Y-94952380D02*
X51166666Y-95666666D01*
X51119047Y-95809523D01*
X51023809Y-95904761D01*
X50880952Y-95952380D01*
X50785714Y-95952380D01*
X51595238Y-95047619D02*
X51642857Y-95000000D01*
X51738095Y-94952380D01*
X51976190Y-94952380D01*
X52071428Y-95000000D01*
X52119047Y-95047619D01*
X52166666Y-95142857D01*
X52166666Y-95238095D01*
X52119047Y-95380952D01*
X51547619Y-95952380D01*
X52166666Y-95952380D01*
X88149561Y-109317119D02*
X88054323Y-109269500D01*
X87959085Y-109174261D01*
X87816228Y-109031404D01*
X87720990Y-108983785D01*
X87625752Y-108983785D01*
X87673371Y-109221880D02*
X87578133Y-109174261D01*
X87482895Y-109079023D01*
X87435276Y-108888547D01*
X87435276Y-108555214D01*
X87482895Y-108364738D01*
X87578133Y-108269500D01*
X87673371Y-108221880D01*
X87863847Y-108221880D01*
X87959085Y-108269500D01*
X88054323Y-108364738D01*
X88101942Y-108555214D01*
X88101942Y-108888547D01*
X88054323Y-109079023D01*
X87959085Y-109174261D01*
X87863847Y-109221880D01*
X87673371Y-109221880D01*
X89054323Y-109221880D02*
X88482895Y-109221880D01*
X88768609Y-109221880D02*
X88768609Y-108221880D01*
X88673371Y-108364738D01*
X88578133Y-108459976D01*
X88482895Y-108507595D01*
X70158361Y-93839219D02*
X70063123Y-93791600D01*
X69967885Y-93696361D01*
X69825028Y-93553504D01*
X69729790Y-93505885D01*
X69634552Y-93505885D01*
X69682171Y-93743980D02*
X69586933Y-93696361D01*
X69491695Y-93601123D01*
X69444076Y-93410647D01*
X69444076Y-93077314D01*
X69491695Y-92886838D01*
X69586933Y-92791600D01*
X69682171Y-92743980D01*
X69872647Y-92743980D01*
X69967885Y-92791600D01*
X70063123Y-92886838D01*
X70110742Y-93077314D01*
X70110742Y-93410647D01*
X70063123Y-93601123D01*
X69967885Y-93696361D01*
X69872647Y-93743980D01*
X69682171Y-93743980D01*
X70491695Y-92839219D02*
X70539314Y-92791600D01*
X70634552Y-92743980D01*
X70872647Y-92743980D01*
X70967885Y-92791600D01*
X71015504Y-92839219D01*
X71063123Y-92934457D01*
X71063123Y-93029695D01*
X71015504Y-93172552D01*
X70444076Y-93743980D01*
X71063123Y-93743980D01*
X70158361Y-87589219D02*
X70063123Y-87541600D01*
X69967885Y-87446361D01*
X69825028Y-87303504D01*
X69729790Y-87255885D01*
X69634552Y-87255885D01*
X69682171Y-87493980D02*
X69586933Y-87446361D01*
X69491695Y-87351123D01*
X69444076Y-87160647D01*
X69444076Y-86827314D01*
X69491695Y-86636838D01*
X69586933Y-86541600D01*
X69682171Y-86493980D01*
X69872647Y-86493980D01*
X69967885Y-86541600D01*
X70063123Y-86636838D01*
X70110742Y-86827314D01*
X70110742Y-87160647D01*
X70063123Y-87351123D01*
X69967885Y-87446361D01*
X69872647Y-87493980D01*
X69682171Y-87493980D01*
X70444076Y-86493980D02*
X71063123Y-86493980D01*
X70729790Y-86874933D01*
X70872647Y-86874933D01*
X70967885Y-86922552D01*
X71015504Y-86970171D01*
X71063123Y-87065409D01*
X71063123Y-87303504D01*
X71015504Y-87398742D01*
X70967885Y-87446361D01*
X70872647Y-87493980D01*
X70586933Y-87493980D01*
X70491695Y-87446361D01*
X70444076Y-87398742D01*
X87097180Y-108936166D02*
X86620990Y-109269500D01*
X87097180Y-109507595D02*
X86097180Y-109507595D01*
X86097180Y-109126642D01*
X86144800Y-109031404D01*
X86192419Y-108983785D01*
X86287657Y-108936166D01*
X86430514Y-108936166D01*
X86525752Y-108983785D01*
X86573371Y-109031404D01*
X86620990Y-109126642D01*
X86620990Y-109507595D01*
X87097180Y-107983785D02*
X87097180Y-108555214D01*
X87097180Y-108269500D02*
X86097180Y-108269500D01*
X86240038Y-108364738D01*
X86335276Y-108459976D01*
X86382895Y-108555214D01*
X91121134Y-121231880D02*
X90787801Y-120755690D01*
X90549705Y-121231880D02*
X90549705Y-120231880D01*
X90930658Y-120231880D01*
X91025896Y-120279500D01*
X91073515Y-120327119D01*
X91121134Y-120422357D01*
X91121134Y-120565214D01*
X91073515Y-120660452D01*
X91025896Y-120708071D01*
X90930658Y-120755690D01*
X90549705Y-120755690D01*
X91502086Y-120327119D02*
X91549705Y-120279500D01*
X91644943Y-120231880D01*
X91883039Y-120231880D01*
X91978277Y-120279500D01*
X92025896Y-120327119D01*
X92073515Y-120422357D01*
X92073515Y-120517595D01*
X92025896Y-120660452D01*
X91454467Y-121231880D01*
X92073515Y-121231880D01*
X108515580Y-124325366D02*
X108039390Y-124658700D01*
X108515580Y-124896795D02*
X107515580Y-124896795D01*
X107515580Y-124515842D01*
X107563200Y-124420604D01*
X107610819Y-124372985D01*
X107706057Y-124325366D01*
X107848914Y-124325366D01*
X107944152Y-124372985D01*
X107991771Y-124420604D01*
X108039390Y-124515842D01*
X108039390Y-124896795D01*
X107515580Y-123992033D02*
X107515580Y-123372985D01*
X107896533Y-123706319D01*
X107896533Y-123563461D01*
X107944152Y-123468223D01*
X107991771Y-123420604D01*
X108087009Y-123372985D01*
X108325104Y-123372985D01*
X108420342Y-123420604D01*
X108467961Y-123468223D01*
X108515580Y-123563461D01*
X108515580Y-123849176D01*
X108467961Y-123944414D01*
X108420342Y-123992033D01*
X107115580Y-124325367D02*
X106639390Y-124658701D01*
X107115580Y-124896796D02*
X106115580Y-124896796D01*
X106115580Y-124515843D01*
X106163200Y-124420605D01*
X106210819Y-124372986D01*
X106306057Y-124325367D01*
X106448914Y-124325367D01*
X106544152Y-124372986D01*
X106591771Y-124420605D01*
X106639390Y-124515843D01*
X106639390Y-124896796D01*
X106448914Y-123468224D02*
X107115580Y-123468224D01*
X106067961Y-123706320D02*
X106782247Y-123944415D01*
X106782247Y-123325367D01*
X71333333Y-101952380D02*
X71000000Y-101476190D01*
X70761904Y-101952380D02*
X70761904Y-100952380D01*
X71142857Y-100952380D01*
X71238095Y-101000000D01*
X71285714Y-101047619D01*
X71333333Y-101142857D01*
X71333333Y-101285714D01*
X71285714Y-101380952D01*
X71238095Y-101428571D01*
X71142857Y-101476190D01*
X70761904Y-101476190D01*
X72238095Y-100952380D02*
X71761904Y-100952380D01*
X71714285Y-101428571D01*
X71761904Y-101380952D01*
X71857142Y-101333333D01*
X72095238Y-101333333D01*
X72190476Y-101380952D01*
X72238095Y-101428571D01*
X72285714Y-101523809D01*
X72285714Y-101761904D01*
X72238095Y-101857142D01*
X72190476Y-101904761D01*
X72095238Y-101952380D01*
X71857142Y-101952380D01*
X71761904Y-101904761D01*
X71714285Y-101857142D01*
X71333333Y-104452380D02*
X71000000Y-103976190D01*
X70761904Y-104452380D02*
X70761904Y-103452380D01*
X71142857Y-103452380D01*
X71238095Y-103500000D01*
X71285714Y-103547619D01*
X71333333Y-103642857D01*
X71333333Y-103785714D01*
X71285714Y-103880952D01*
X71238095Y-103928571D01*
X71142857Y-103976190D01*
X70761904Y-103976190D01*
X72190476Y-103452380D02*
X72000000Y-103452380D01*
X71904761Y-103500000D01*
X71857142Y-103547619D01*
X71761904Y-103690476D01*
X71714285Y-103880952D01*
X71714285Y-104261904D01*
X71761904Y-104357142D01*
X71809523Y-104404761D01*
X71904761Y-104452380D01*
X72095238Y-104452380D01*
X72190476Y-104404761D01*
X72238095Y-104357142D01*
X72285714Y-104261904D01*
X72285714Y-104023809D01*
X72238095Y-103928571D01*
X72190476Y-103880952D01*
X72095238Y-103833333D01*
X71904761Y-103833333D01*
X71809523Y-103880952D01*
X71761904Y-103928571D01*
X71714285Y-104023809D01*
X68986933Y-98248981D02*
X68653600Y-97772791D01*
X68415504Y-98248981D02*
X68415504Y-97248981D01*
X68796457Y-97248981D01*
X68891695Y-97296601D01*
X68939314Y-97344220D01*
X68986933Y-97439458D01*
X68986933Y-97582315D01*
X68939314Y-97677553D01*
X68891695Y-97725172D01*
X68796457Y-97772791D01*
X68415504Y-97772791D01*
X69320266Y-97248981D02*
X69986933Y-97248981D01*
X69558361Y-98248981D01*
X71333333Y-97952380D02*
X71000000Y-97476190D01*
X70761904Y-97952380D02*
X70761904Y-96952380D01*
X71142857Y-96952380D01*
X71238095Y-97000000D01*
X71285714Y-97047619D01*
X71333333Y-97142857D01*
X71333333Y-97285714D01*
X71285714Y-97380952D01*
X71238095Y-97428571D01*
X71142857Y-97476190D01*
X70761904Y-97476190D01*
X71904761Y-97380952D02*
X71809523Y-97333333D01*
X71761904Y-97285714D01*
X71714285Y-97190476D01*
X71714285Y-97142857D01*
X71761904Y-97047619D01*
X71809523Y-97000000D01*
X71904761Y-96952380D01*
X72095238Y-96952380D01*
X72190476Y-97000000D01*
X72238095Y-97047619D01*
X72285714Y-97142857D01*
X72285714Y-97190476D01*
X72238095Y-97285714D01*
X72190476Y-97333333D01*
X72095238Y-97380952D01*
X71904761Y-97380952D01*
X71809523Y-97428571D01*
X71761904Y-97476190D01*
X71714285Y-97571428D01*
X71714285Y-97761904D01*
X71761904Y-97857142D01*
X71809523Y-97904761D01*
X71904761Y-97952380D01*
X72095238Y-97952380D01*
X72190476Y-97904761D01*
X72238095Y-97857142D01*
X72285714Y-97761904D01*
X72285714Y-97571428D01*
X72238095Y-97476190D01*
X72190476Y-97428571D01*
X72095238Y-97380952D01*
X71333333Y-96452380D02*
X71000000Y-95976190D01*
X70761904Y-96452380D02*
X70761904Y-95452380D01*
X71142857Y-95452380D01*
X71238095Y-95500000D01*
X71285714Y-95547619D01*
X71333333Y-95642857D01*
X71333333Y-95785714D01*
X71285714Y-95880952D01*
X71238095Y-95928571D01*
X71142857Y-95976190D01*
X70761904Y-95976190D01*
X71809523Y-96452380D02*
X72000000Y-96452380D01*
X72095238Y-96404761D01*
X72142857Y-96357142D01*
X72238095Y-96214285D01*
X72285714Y-96023809D01*
X72285714Y-95642857D01*
X72238095Y-95547619D01*
X72190476Y-95500000D01*
X72095238Y-95452380D01*
X71904761Y-95452380D01*
X71809523Y-95500000D01*
X71761904Y-95547619D01*
X71714285Y-95642857D01*
X71714285Y-95880952D01*
X71761904Y-95976190D01*
X71809523Y-96023809D01*
X71904761Y-96071428D01*
X72095238Y-96071428D01*
X72190476Y-96023809D01*
X72238095Y-95976190D01*
X72285714Y-95880952D01*
X85238095Y-116452380D02*
X85238095Y-117261904D01*
X85285714Y-117357142D01*
X85333333Y-117404761D01*
X85428571Y-117452380D01*
X85619047Y-117452380D01*
X85714285Y-117404761D01*
X85761904Y-117357142D01*
X85809523Y-117261904D01*
X85809523Y-116452380D01*
X86809523Y-117452380D02*
X86238095Y-117452380D01*
X86523809Y-117452380D02*
X86523809Y-116452380D01*
X86428571Y-116595238D01*
X86333333Y-116690476D01*
X86238095Y-116738095D01*
X107745580Y-116720604D02*
X108555104Y-116720604D01*
X108650342Y-116672985D01*
X108697961Y-116625366D01*
X108745580Y-116530128D01*
X108745580Y-116339652D01*
X108697961Y-116244414D01*
X108650342Y-116196795D01*
X108555104Y-116149176D01*
X107745580Y-116149176D01*
X107840819Y-115720604D02*
X107793200Y-115672985D01*
X107745580Y-115577747D01*
X107745580Y-115339652D01*
X107793200Y-115244414D01*
X107840819Y-115196795D01*
X107936057Y-115149176D01*
X108031295Y-115149176D01*
X108174152Y-115196795D01*
X108745580Y-115768223D01*
X108745580Y-115149176D01*
X62895695Y-93015980D02*
X62895695Y-93825504D01*
X62943314Y-93920742D01*
X62990933Y-93968361D01*
X63086171Y-94015980D01*
X63276647Y-94015980D01*
X63371885Y-93968361D01*
X63419504Y-93920742D01*
X63467123Y-93825504D01*
X63467123Y-93015980D01*
X63848076Y-93015980D02*
X64467123Y-93015980D01*
X64133790Y-93396933D01*
X64276647Y-93396933D01*
X64371885Y-93444552D01*
X64419504Y-93492171D01*
X64467123Y-93587409D01*
X64467123Y-93825504D01*
X64419504Y-93920742D01*
X64371885Y-93968361D01*
X64276647Y-94015980D01*
X63990933Y-94015980D01*
X63895695Y-93968361D01*
X63848076Y-93920742D01*
X54523809Y-100976190D02*
X54523809Y-101452380D01*
X54190476Y-100452380D02*
X54523809Y-100976190D01*
X54857142Y-100452380D01*
X55714285Y-101452380D02*
X55142857Y-101452380D01*
X55428571Y-101452380D02*
X55428571Y-100452380D01*
X55333333Y-100595238D01*
X55238095Y-100690476D01*
X55142857Y-100738095D01*
X98857142Y-123142857D02*
X98904761Y-123190476D01*
X98952380Y-123333333D01*
X98952380Y-123428571D01*
X98904761Y-123571428D01*
X98809523Y-123666666D01*
X98714285Y-123714285D01*
X98523809Y-123761904D01*
X98380952Y-123761904D01*
X98190476Y-123714285D01*
X98095238Y-123666666D01*
X98000000Y-123571428D01*
X97952380Y-123428571D01*
X97952380Y-123333333D01*
X98000000Y-123190476D01*
X98047619Y-123142857D01*
X97952380Y-122809523D02*
X97952380Y-122190476D01*
X98333333Y-122523809D01*
X98333333Y-122380952D01*
X98380952Y-122285714D01*
X98428571Y-122238095D01*
X98523809Y-122190476D01*
X98761904Y-122190476D01*
X98857142Y-122238095D01*
X98904761Y-122285714D01*
X98952380Y-122380952D01*
X98952380Y-122666666D01*
X98904761Y-122761904D01*
X98857142Y-122809523D01*
X98952380Y-121238095D02*
X98952380Y-121809523D01*
X98952380Y-121523809D02*
X97952380Y-121523809D01*
X98095238Y-121619047D01*
X98190476Y-121714285D01*
X98238095Y-121809523D01*
X94613642Y-102544142D02*
X94566023Y-102591761D01*
X94423166Y-102639380D01*
X94327928Y-102639380D01*
X94185071Y-102591761D01*
X94089833Y-102496523D01*
X94042214Y-102401285D01*
X93994595Y-102210809D01*
X93994595Y-102067952D01*
X94042214Y-101877476D01*
X94089833Y-101782238D01*
X94185071Y-101687000D01*
X94327928Y-101639380D01*
X94423166Y-101639380D01*
X94566023Y-101687000D01*
X94613642Y-101734619D01*
X94946976Y-101639380D02*
X95566023Y-101639380D01*
X95232690Y-102020333D01*
X95375547Y-102020333D01*
X95470785Y-102067952D01*
X95518404Y-102115571D01*
X95566023Y-102210809D01*
X95566023Y-102448904D01*
X95518404Y-102544142D01*
X95470785Y-102591761D01*
X95375547Y-102639380D01*
X95089833Y-102639380D01*
X94994595Y-102591761D01*
X94946976Y-102544142D01*
X95946976Y-101734619D02*
X95994595Y-101687000D01*
X96089833Y-101639380D01*
X96327928Y-101639380D01*
X96423166Y-101687000D01*
X96470785Y-101734619D01*
X96518404Y-101829857D01*
X96518404Y-101925095D01*
X96470785Y-102067952D01*
X95899357Y-102639380D01*
X96518404Y-102639380D01*
X90357142Y-109857142D02*
X90309523Y-109904761D01*
X90166666Y-109952380D01*
X90071428Y-109952380D01*
X89928571Y-109904761D01*
X89833333Y-109809523D01*
X89785714Y-109714285D01*
X89738095Y-109523809D01*
X89738095Y-109380952D01*
X89785714Y-109190476D01*
X89833333Y-109095238D01*
X89928571Y-109000000D01*
X90071428Y-108952380D01*
X90166666Y-108952380D01*
X90309523Y-109000000D01*
X90357142Y-109047619D01*
X90690476Y-108952380D02*
X91309523Y-108952380D01*
X90976190Y-109333333D01*
X91119047Y-109333333D01*
X91214285Y-109380952D01*
X91261904Y-109428571D01*
X91309523Y-109523809D01*
X91309523Y-109761904D01*
X91261904Y-109857142D01*
X91214285Y-109904761D01*
X91119047Y-109952380D01*
X90833333Y-109952380D01*
X90738095Y-109904761D01*
X90690476Y-109857142D01*
X91785714Y-109952380D02*
X91976190Y-109952380D01*
X92071428Y-109904761D01*
X92119047Y-109857142D01*
X92214285Y-109714285D01*
X92261904Y-109523809D01*
X92261904Y-109142857D01*
X92214285Y-109047619D01*
X92166666Y-109000000D01*
X92071428Y-108952380D01*
X91880952Y-108952380D01*
X91785714Y-109000000D01*
X91738095Y-109047619D01*
X91690476Y-109142857D01*
X91690476Y-109380952D01*
X91738095Y-109476190D01*
X91785714Y-109523809D01*
X91880952Y-109571428D01*
X92071428Y-109571428D01*
X92166666Y-109523809D01*
X92214285Y-109476190D01*
X92261904Y-109380952D01*
X92580842Y-115357142D02*
X92533223Y-115404761D01*
X92390366Y-115452380D01*
X92295128Y-115452380D01*
X92152271Y-115404761D01*
X92057033Y-115309523D01*
X92009414Y-115214285D01*
X91961795Y-115023809D01*
X91961795Y-114880952D01*
X92009414Y-114690476D01*
X92057033Y-114595238D01*
X92152271Y-114500000D01*
X92295128Y-114452380D01*
X92390366Y-114452380D01*
X92533223Y-114500000D01*
X92580842Y-114547619D01*
X93437985Y-114785714D02*
X93437985Y-115452380D01*
X93199890Y-114404761D02*
X92961795Y-115119047D01*
X93580842Y-115119047D01*
X94152271Y-114452380D02*
X94247509Y-114452380D01*
X94342747Y-114500000D01*
X94390366Y-114547619D01*
X94437985Y-114642857D01*
X94485604Y-114833333D01*
X94485604Y-115071428D01*
X94437985Y-115261904D01*
X94390366Y-115357142D01*
X94342747Y-115404761D01*
X94247509Y-115452380D01*
X94152271Y-115452380D01*
X94057033Y-115404761D01*
X94009414Y-115357142D01*
X93961795Y-115261904D01*
X93914176Y-115071428D01*
X93914176Y-114833333D01*
X93961795Y-114642857D01*
X94009414Y-114547619D01*
X94057033Y-114500000D01*
X94152271Y-114452380D01*
X101332333Y-125325280D02*
X100856142Y-125325280D01*
X100856142Y-124325280D01*
X101570428Y-124325280D02*
X102189476Y-124325280D01*
X101856142Y-124706233D01*
X101999000Y-124706233D01*
X102094238Y-124753852D01*
X102141857Y-124801471D01*
X102189476Y-124896709D01*
X102189476Y-125134804D01*
X102141857Y-125230042D01*
X102094238Y-125277661D01*
X101999000Y-125325280D01*
X101713285Y-125325280D01*
X101618047Y-125277661D01*
X101570428Y-125230042D01*
X103408380Y-119480804D02*
X104217904Y-119480804D01*
X104313142Y-119433185D01*
X104360761Y-119385566D01*
X104408380Y-119290328D01*
X104408380Y-119099852D01*
X104360761Y-119004614D01*
X104313142Y-118956995D01*
X104217904Y-118909376D01*
X103408380Y-118909376D01*
X103741714Y-118004614D02*
X104408380Y-118004614D01*
X103360761Y-118242709D02*
X104075047Y-118480804D01*
X104075047Y-117861757D01*
X91422995Y-104735380D02*
X91422995Y-105544904D01*
X91470614Y-105640142D01*
X91518233Y-105687761D01*
X91613471Y-105735380D01*
X91803947Y-105735380D01*
X91899185Y-105687761D01*
X91946804Y-105640142D01*
X91994423Y-105544904D01*
X91994423Y-104735380D01*
X92946804Y-104735380D02*
X92470614Y-104735380D01*
X92422995Y-105211571D01*
X92470614Y-105163952D01*
X92565852Y-105116333D01*
X92803947Y-105116333D01*
X92899185Y-105163952D01*
X92946804Y-105211571D01*
X92994423Y-105306809D01*
X92994423Y-105544904D01*
X92946804Y-105640142D01*
X92899185Y-105687761D01*
X92803947Y-105735380D01*
X92565852Y-105735380D01*
X92470614Y-105687761D01*
X92422995Y-105640142D01*
X91168995Y-110577380D02*
X91168995Y-111386904D01*
X91216614Y-111482142D01*
X91264233Y-111529761D01*
X91359471Y-111577380D01*
X91549947Y-111577380D01*
X91645185Y-111529761D01*
X91692804Y-111482142D01*
X91740423Y-111386904D01*
X91740423Y-110577380D01*
X92359471Y-111005952D02*
X92264233Y-110958333D01*
X92216614Y-110910714D01*
X92168995Y-110815476D01*
X92168995Y-110767857D01*
X92216614Y-110672619D01*
X92264233Y-110625000D01*
X92359471Y-110577380D01*
X92549947Y-110577380D01*
X92645185Y-110625000D01*
X92692804Y-110672619D01*
X92740423Y-110767857D01*
X92740423Y-110815476D01*
X92692804Y-110910714D01*
X92645185Y-110958333D01*
X92549947Y-111005952D01*
X92359471Y-111005952D01*
X92264233Y-111053571D01*
X92216614Y-111101190D01*
X92168995Y-111196428D01*
X92168995Y-111386904D01*
X92216614Y-111482142D01*
X92264233Y-111529761D01*
X92359471Y-111577380D01*
X92549947Y-111577380D01*
X92645185Y-111529761D01*
X92692804Y-111482142D01*
X92740423Y-111386904D01*
X92740423Y-111196428D01*
X92692804Y-111101190D01*
X92645185Y-111053571D01*
X92549947Y-111005952D01*
X101305142Y-114908043D02*
X101257523Y-114955662D01*
X101114666Y-115003281D01*
X101019428Y-115003281D01*
X100876571Y-114955662D01*
X100781333Y-114860424D01*
X100733714Y-114765186D01*
X100686095Y-114574710D01*
X100686095Y-114431853D01*
X100733714Y-114241377D01*
X100781333Y-114146139D01*
X100876571Y-114050901D01*
X101019428Y-114003281D01*
X101114666Y-114003281D01*
X101257523Y-114050901D01*
X101305142Y-114098520D01*
X102162285Y-114336615D02*
X102162285Y-115003281D01*
X101924190Y-113955662D02*
X101686095Y-114669948D01*
X102305142Y-114669948D01*
X103209904Y-115003281D02*
X102638476Y-115003281D01*
X102924190Y-115003281D02*
X102924190Y-114003281D01*
X102828952Y-114146139D01*
X102733714Y-114241377D01*
X102638476Y-114288996D01*
X93238095Y-93588380D02*
X93238095Y-94397904D01*
X93285714Y-94493142D01*
X93333333Y-94540761D01*
X93428571Y-94588380D01*
X93619047Y-94588380D01*
X93714285Y-94540761D01*
X93761904Y-94493142D01*
X93809523Y-94397904D01*
X93809523Y-93588380D01*
X94333333Y-94588380D02*
X94523809Y-94588380D01*
X94619047Y-94540761D01*
X94666666Y-94493142D01*
X94761904Y-94350285D01*
X94809523Y-94159809D01*
X94809523Y-93778857D01*
X94761904Y-93683619D01*
X94714285Y-93636000D01*
X94619047Y-93588380D01*
X94428571Y-93588380D01*
X94333333Y-93636000D01*
X94285714Y-93683619D01*
X94238095Y-93778857D01*
X94238095Y-94016952D01*
X94285714Y-94112190D01*
X94333333Y-94159809D01*
X94428571Y-94207428D01*
X94619047Y-94207428D01*
X94714285Y-94159809D01*
X94761904Y-94112190D01*
X94809523Y-94016952D01*
X129849333Y-96166666D02*
X130325523Y-96166666D01*
X129754095Y-96452380D02*
X130087428Y-95452380D01*
X130420761Y-96452380D01*
X130754095Y-95928571D02*
X131087428Y-95928571D01*
X131230285Y-96452380D02*
X130754095Y-96452380D01*
X130754095Y-95452380D01*
X131230285Y-95452380D01*
X131611238Y-95547619D02*
X131658857Y-95500000D01*
X131754095Y-95452380D01*
X131992190Y-95452380D01*
X132087428Y-95500000D01*
X132135047Y-95547619D01*
X132182666Y-95642857D01*
X132182666Y-95738095D01*
X132135047Y-95880952D01*
X131563619Y-96452380D01*
X132182666Y-96452380D01*
X125357142Y-94642857D02*
X125404761Y-94690476D01*
X125452380Y-94833333D01*
X125452380Y-94928571D01*
X125404761Y-95071428D01*
X125309523Y-95166666D01*
X125214285Y-95214285D01*
X125023809Y-95261904D01*
X124880952Y-95261904D01*
X124690476Y-95214285D01*
X124595238Y-95166666D01*
X124500000Y-95071428D01*
X124452380Y-94928571D01*
X124452380Y-94833333D01*
X124500000Y-94690476D01*
X124547619Y-94642857D01*
X124785714Y-93785714D02*
X125452380Y-93785714D01*
X124404761Y-94023809D02*
X125119047Y-94261904D01*
X125119047Y-93642857D01*
X124547619Y-93309523D02*
X124500000Y-93261904D01*
X124452380Y-93166666D01*
X124452380Y-92928571D01*
X124500000Y-92833333D01*
X124547619Y-92785714D01*
X124642857Y-92738095D01*
X124738095Y-92738095D01*
X124880952Y-92785714D01*
X125452380Y-93357142D01*
X125452380Y-92738095D01*
X123643542Y-94642857D02*
X123691161Y-94690476D01*
X123738780Y-94833333D01*
X123738780Y-94928571D01*
X123691161Y-95071428D01*
X123595923Y-95166666D01*
X123500685Y-95214285D01*
X123310209Y-95261904D01*
X123167352Y-95261904D01*
X122976876Y-95214285D01*
X122881638Y-95166666D01*
X122786400Y-95071428D01*
X122738780Y-94928571D01*
X122738780Y-94833333D01*
X122786400Y-94690476D01*
X122834019Y-94642857D01*
X123072114Y-93785714D02*
X123738780Y-93785714D01*
X122691161Y-94023809D02*
X123405447Y-94261904D01*
X123405447Y-93642857D01*
X122738780Y-93357142D02*
X122738780Y-92738095D01*
X123119733Y-93071428D01*
X123119733Y-92928571D01*
X123167352Y-92833333D01*
X123214971Y-92785714D01*
X123310209Y-92738095D01*
X123548304Y-92738095D01*
X123643542Y-92785714D01*
X123691161Y-92833333D01*
X123738780Y-92928571D01*
X123738780Y-93214285D01*
X123691161Y-93309523D01*
X123643542Y-93357142D01*
X122202747Y-94642857D02*
X122250366Y-94690476D01*
X122297985Y-94833333D01*
X122297985Y-94928571D01*
X122250366Y-95071428D01*
X122155128Y-95166666D01*
X122059890Y-95214285D01*
X121869414Y-95261904D01*
X121726557Y-95261904D01*
X121536081Y-95214285D01*
X121440843Y-95166666D01*
X121345605Y-95071428D01*
X121297985Y-94928571D01*
X121297985Y-94833333D01*
X121345605Y-94690476D01*
X121393224Y-94642857D01*
X121631319Y-93785714D02*
X122297985Y-93785714D01*
X121250366Y-94023809D02*
X121964652Y-94261904D01*
X121964652Y-93642857D01*
X121631319Y-92833333D02*
X122297985Y-92833333D01*
X121250366Y-93071428D02*
X121964652Y-93309523D01*
X121964652Y-92690476D01*
X113323642Y-106243357D02*
X113371261Y-106290976D01*
X113418880Y-106433833D01*
X113418880Y-106529071D01*
X113371261Y-106671928D01*
X113276023Y-106767166D01*
X113180785Y-106814785D01*
X112990309Y-106862404D01*
X112847452Y-106862404D01*
X112656976Y-106814785D01*
X112561738Y-106767166D01*
X112466500Y-106671928D01*
X112418880Y-106529071D01*
X112418880Y-106433833D01*
X112466500Y-106290976D01*
X112514119Y-106243357D01*
X112752214Y-105386214D02*
X113418880Y-105386214D01*
X112371261Y-105624309D02*
X113085547Y-105862404D01*
X113085547Y-105243357D01*
X112418880Y-104386214D02*
X112418880Y-104862404D01*
X112895071Y-104910023D01*
X112847452Y-104862404D01*
X112799833Y-104767166D01*
X112799833Y-104529071D01*
X112847452Y-104433833D01*
X112895071Y-104386214D01*
X112990309Y-104338595D01*
X113228404Y-104338595D01*
X113323642Y-104386214D01*
X113371261Y-104433833D01*
X113418880Y-104529071D01*
X113418880Y-104767166D01*
X113371261Y-104862404D01*
X113323642Y-104910023D01*
X110466142Y-107696357D02*
X110513761Y-107743976D01*
X110561380Y-107886833D01*
X110561380Y-107982071D01*
X110513761Y-108124928D01*
X110418523Y-108220166D01*
X110323285Y-108267785D01*
X110132809Y-108315404D01*
X109989952Y-108315404D01*
X109799476Y-108267785D01*
X109704238Y-108220166D01*
X109609000Y-108124928D01*
X109561380Y-107982071D01*
X109561380Y-107886833D01*
X109609000Y-107743976D01*
X109656619Y-107696357D01*
X109894714Y-106839214D02*
X110561380Y-106839214D01*
X109513761Y-107077309D02*
X110228047Y-107315404D01*
X110228047Y-106696357D01*
X109561380Y-105886833D02*
X109561380Y-106077309D01*
X109609000Y-106172547D01*
X109656619Y-106220166D01*
X109799476Y-106315404D01*
X109989952Y-106363023D01*
X110370904Y-106363023D01*
X110466142Y-106315404D01*
X110513761Y-106267785D01*
X110561380Y-106172547D01*
X110561380Y-105982071D01*
X110513761Y-105886833D01*
X110466142Y-105839214D01*
X110370904Y-105791595D01*
X110132809Y-105791595D01*
X110037571Y-105839214D01*
X109989952Y-105886833D01*
X109942333Y-105982071D01*
X109942333Y-106172547D01*
X109989952Y-106267785D01*
X110037571Y-106315404D01*
X110132809Y-106363023D01*
X100385642Y-91924142D02*
X100338023Y-91971761D01*
X100195166Y-92019380D01*
X100099928Y-92019380D01*
X99957071Y-91971761D01*
X99861833Y-91876523D01*
X99814214Y-91781285D01*
X99766595Y-91590809D01*
X99766595Y-91447952D01*
X99814214Y-91257476D01*
X99861833Y-91162238D01*
X99957071Y-91067000D01*
X100099928Y-91019380D01*
X100195166Y-91019380D01*
X100338023Y-91067000D01*
X100385642Y-91114619D01*
X101242785Y-91352714D02*
X101242785Y-92019380D01*
X101004690Y-90971761D02*
X100766595Y-91686047D01*
X101385642Y-91686047D01*
X101671357Y-91019380D02*
X102338023Y-91019380D01*
X101909452Y-92019380D01*
X100385642Y-90717642D02*
X100338023Y-90765261D01*
X100195166Y-90812880D01*
X100099928Y-90812880D01*
X99957071Y-90765261D01*
X99861833Y-90670023D01*
X99814214Y-90574785D01*
X99766595Y-90384309D01*
X99766595Y-90241452D01*
X99814214Y-90050976D01*
X99861833Y-89955738D01*
X99957071Y-89860500D01*
X100099928Y-89812880D01*
X100195166Y-89812880D01*
X100338023Y-89860500D01*
X100385642Y-89908119D01*
X101242785Y-90146214D02*
X101242785Y-90812880D01*
X101004690Y-89765261D02*
X100766595Y-90479547D01*
X101385642Y-90479547D01*
X101909452Y-90241452D02*
X101814214Y-90193833D01*
X101766595Y-90146214D01*
X101718976Y-90050976D01*
X101718976Y-90003357D01*
X101766595Y-89908119D01*
X101814214Y-89860500D01*
X101909452Y-89812880D01*
X102099928Y-89812880D01*
X102195166Y-89860500D01*
X102242785Y-89908119D01*
X102290404Y-90003357D01*
X102290404Y-90050976D01*
X102242785Y-90146214D01*
X102195166Y-90193833D01*
X102099928Y-90241452D01*
X101909452Y-90241452D01*
X101814214Y-90289071D01*
X101766595Y-90336690D01*
X101718976Y-90431928D01*
X101718976Y-90622404D01*
X101766595Y-90717642D01*
X101814214Y-90765261D01*
X101909452Y-90812880D01*
X102099928Y-90812880D01*
X102195166Y-90765261D01*
X102242785Y-90717642D01*
X102290404Y-90622404D01*
X102290404Y-90431928D01*
X102242785Y-90336690D01*
X102195166Y-90289071D01*
X102099928Y-90241452D01*
X113357142Y-89857142D02*
X113309523Y-89904761D01*
X113166666Y-89952380D01*
X113071428Y-89952380D01*
X112928571Y-89904761D01*
X112833333Y-89809523D01*
X112785714Y-89714285D01*
X112738095Y-89523809D01*
X112738095Y-89380952D01*
X112785714Y-89190476D01*
X112833333Y-89095238D01*
X112928571Y-89000000D01*
X113071428Y-88952380D01*
X113166666Y-88952380D01*
X113309523Y-89000000D01*
X113357142Y-89047619D01*
X114214285Y-89285714D02*
X114214285Y-89952380D01*
X113976190Y-88904761D02*
X113738095Y-89619047D01*
X114357142Y-89619047D01*
X114785714Y-89952380D02*
X114976190Y-89952380D01*
X115071428Y-89904761D01*
X115119047Y-89857142D01*
X115214285Y-89714285D01*
X115261904Y-89523809D01*
X115261904Y-89142857D01*
X115214285Y-89047619D01*
X115166666Y-89000000D01*
X115071428Y-88952380D01*
X114880952Y-88952380D01*
X114785714Y-89000000D01*
X114738095Y-89047619D01*
X114690476Y-89142857D01*
X114690476Y-89380952D01*
X114738095Y-89476190D01*
X114785714Y-89523809D01*
X114880952Y-89571428D01*
X115071428Y-89571428D01*
X115166666Y-89523809D01*
X115214285Y-89476190D01*
X115261904Y-89380952D01*
X114857142Y-100909357D02*
X114904761Y-100956976D01*
X114952380Y-101099833D01*
X114952380Y-101195071D01*
X114904761Y-101337928D01*
X114809523Y-101433166D01*
X114714285Y-101480785D01*
X114523809Y-101528404D01*
X114380952Y-101528404D01*
X114190476Y-101480785D01*
X114095238Y-101433166D01*
X114000000Y-101337928D01*
X113952380Y-101195071D01*
X113952380Y-101099833D01*
X114000000Y-100956976D01*
X114047619Y-100909357D01*
X113952380Y-100004595D02*
X113952380Y-100480785D01*
X114428571Y-100528404D01*
X114380952Y-100480785D01*
X114333333Y-100385547D01*
X114333333Y-100147452D01*
X114380952Y-100052214D01*
X114428571Y-100004595D01*
X114523809Y-99956976D01*
X114761904Y-99956976D01*
X114857142Y-100004595D01*
X114904761Y-100052214D01*
X114952380Y-100147452D01*
X114952380Y-100385547D01*
X114904761Y-100480785D01*
X114857142Y-100528404D01*
X113952380Y-99337928D02*
X113952380Y-99242690D01*
X114000000Y-99147452D01*
X114047619Y-99099833D01*
X114142857Y-99052214D01*
X114333333Y-99004595D01*
X114571428Y-99004595D01*
X114761904Y-99052214D01*
X114857142Y-99099833D01*
X114904761Y-99147452D01*
X114952380Y-99242690D01*
X114952380Y-99337928D01*
X114904761Y-99433166D01*
X114857142Y-99480785D01*
X114761904Y-99528404D01*
X114571428Y-99576023D01*
X114333333Y-99576023D01*
X114142857Y-99528404D01*
X114047619Y-99480785D01*
X114000000Y-99433166D01*
X113952380Y-99337928D01*
X113357142Y-100909357D02*
X113404761Y-100956976D01*
X113452380Y-101099833D01*
X113452380Y-101195071D01*
X113404761Y-101337928D01*
X113309523Y-101433166D01*
X113214285Y-101480785D01*
X113023809Y-101528404D01*
X112880952Y-101528404D01*
X112690476Y-101480785D01*
X112595238Y-101433166D01*
X112500000Y-101337928D01*
X112452380Y-101195071D01*
X112452380Y-101099833D01*
X112500000Y-100956976D01*
X112547619Y-100909357D01*
X112452380Y-100004595D02*
X112452380Y-100480785D01*
X112928571Y-100528404D01*
X112880952Y-100480785D01*
X112833333Y-100385547D01*
X112833333Y-100147452D01*
X112880952Y-100052214D01*
X112928571Y-100004595D01*
X113023809Y-99956976D01*
X113261904Y-99956976D01*
X113357142Y-100004595D01*
X113404761Y-100052214D01*
X113452380Y-100147452D01*
X113452380Y-100385547D01*
X113404761Y-100480785D01*
X113357142Y-100528404D01*
X113452380Y-99004595D02*
X113452380Y-99576023D01*
X113452380Y-99290309D02*
X112452380Y-99290309D01*
X112595238Y-99385547D01*
X112690476Y-99480785D01*
X112738095Y-99576023D01*
X118610142Y-90857142D02*
X118562523Y-90904761D01*
X118419666Y-90952380D01*
X118324428Y-90952380D01*
X118181571Y-90904761D01*
X118086333Y-90809523D01*
X118038714Y-90714285D01*
X117991095Y-90523809D01*
X117991095Y-90380952D01*
X118038714Y-90190476D01*
X118086333Y-90095238D01*
X118181571Y-90000000D01*
X118324428Y-89952380D01*
X118419666Y-89952380D01*
X118562523Y-90000000D01*
X118610142Y-90047619D01*
X119514904Y-89952380D02*
X119038714Y-89952380D01*
X118991095Y-90428571D01*
X119038714Y-90380952D01*
X119133952Y-90333333D01*
X119372047Y-90333333D01*
X119467285Y-90380952D01*
X119514904Y-90428571D01*
X119562523Y-90523809D01*
X119562523Y-90761904D01*
X119514904Y-90857142D01*
X119467285Y-90904761D01*
X119372047Y-90952380D01*
X119133952Y-90952380D01*
X119038714Y-90904761D01*
X118991095Y-90857142D01*
X119943476Y-90047619D02*
X119991095Y-90000000D01*
X120086333Y-89952380D01*
X120324428Y-89952380D01*
X120419666Y-90000000D01*
X120467285Y-90047619D01*
X120514904Y-90142857D01*
X120514904Y-90238095D01*
X120467285Y-90380952D01*
X119895857Y-90952380D01*
X120514904Y-90952380D01*
X104179642Y-102687357D02*
X104227261Y-102734976D01*
X104274880Y-102877833D01*
X104274880Y-102973071D01*
X104227261Y-103115928D01*
X104132023Y-103211166D01*
X104036785Y-103258785D01*
X103846309Y-103306404D01*
X103703452Y-103306404D01*
X103512976Y-103258785D01*
X103417738Y-103211166D01*
X103322500Y-103115928D01*
X103274880Y-102973071D01*
X103274880Y-102877833D01*
X103322500Y-102734976D01*
X103370119Y-102687357D01*
X103274880Y-101782595D02*
X103274880Y-102258785D01*
X103751071Y-102306404D01*
X103703452Y-102258785D01*
X103655833Y-102163547D01*
X103655833Y-101925452D01*
X103703452Y-101830214D01*
X103751071Y-101782595D01*
X103846309Y-101734976D01*
X104084404Y-101734976D01*
X104179642Y-101782595D01*
X104227261Y-101830214D01*
X104274880Y-101925452D01*
X104274880Y-102163547D01*
X104227261Y-102258785D01*
X104179642Y-102306404D01*
X103274880Y-101401642D02*
X103274880Y-100782595D01*
X103655833Y-101115928D01*
X103655833Y-100973071D01*
X103703452Y-100877833D01*
X103751071Y-100830214D01*
X103846309Y-100782595D01*
X104084404Y-100782595D01*
X104179642Y-100830214D01*
X104227261Y-100877833D01*
X104274880Y-100973071D01*
X104274880Y-101258785D01*
X104227261Y-101354023D01*
X104179642Y-101401642D01*
X118610142Y-92357142D02*
X118562523Y-92404761D01*
X118419666Y-92452380D01*
X118324428Y-92452380D01*
X118181571Y-92404761D01*
X118086333Y-92309523D01*
X118038714Y-92214285D01*
X117991095Y-92023809D01*
X117991095Y-91880952D01*
X118038714Y-91690476D01*
X118086333Y-91595238D01*
X118181571Y-91500000D01*
X118324428Y-91452380D01*
X118419666Y-91452380D01*
X118562523Y-91500000D01*
X118610142Y-91547619D01*
X119514904Y-91452380D02*
X119038714Y-91452380D01*
X118991095Y-91928571D01*
X119038714Y-91880952D01*
X119133952Y-91833333D01*
X119372047Y-91833333D01*
X119467285Y-91880952D01*
X119514904Y-91928571D01*
X119562523Y-92023809D01*
X119562523Y-92261904D01*
X119514904Y-92357142D01*
X119467285Y-92404761D01*
X119372047Y-92452380D01*
X119133952Y-92452380D01*
X119038714Y-92404761D01*
X118991095Y-92357142D01*
X120419666Y-91785714D02*
X120419666Y-92452380D01*
X120181571Y-91404761D02*
X119943476Y-92119047D01*
X120562523Y-92119047D01*
X106719642Y-102687357D02*
X106767261Y-102734976D01*
X106814880Y-102877833D01*
X106814880Y-102973071D01*
X106767261Y-103115928D01*
X106672023Y-103211166D01*
X106576785Y-103258785D01*
X106386309Y-103306404D01*
X106243452Y-103306404D01*
X106052976Y-103258785D01*
X105957738Y-103211166D01*
X105862500Y-103115928D01*
X105814880Y-102973071D01*
X105814880Y-102877833D01*
X105862500Y-102734976D01*
X105910119Y-102687357D01*
X105814880Y-101782595D02*
X105814880Y-102258785D01*
X106291071Y-102306404D01*
X106243452Y-102258785D01*
X106195833Y-102163547D01*
X106195833Y-101925452D01*
X106243452Y-101830214D01*
X106291071Y-101782595D01*
X106386309Y-101734976D01*
X106624404Y-101734976D01*
X106719642Y-101782595D01*
X106767261Y-101830214D01*
X106814880Y-101925452D01*
X106814880Y-102163547D01*
X106767261Y-102258785D01*
X106719642Y-102306404D01*
X105814880Y-100830214D02*
X105814880Y-101306404D01*
X106291071Y-101354023D01*
X106243452Y-101306404D01*
X106195833Y-101211166D01*
X106195833Y-100973071D01*
X106243452Y-100877833D01*
X106291071Y-100830214D01*
X106386309Y-100782595D01*
X106624404Y-100782595D01*
X106719642Y-100830214D01*
X106767261Y-100877833D01*
X106814880Y-100973071D01*
X106814880Y-101211166D01*
X106767261Y-101306404D01*
X106719642Y-101354023D01*
X118546642Y-95357142D02*
X118499023Y-95404761D01*
X118356166Y-95452380D01*
X118260928Y-95452380D01*
X118118071Y-95404761D01*
X118022833Y-95309523D01*
X117975214Y-95214285D01*
X117927595Y-95023809D01*
X117927595Y-94880952D01*
X117975214Y-94690476D01*
X118022833Y-94595238D01*
X118118071Y-94500000D01*
X118260928Y-94452380D01*
X118356166Y-94452380D01*
X118499023Y-94500000D01*
X118546642Y-94547619D01*
X119451404Y-94452380D02*
X118975214Y-94452380D01*
X118927595Y-94928571D01*
X118975214Y-94880952D01*
X119070452Y-94833333D01*
X119308547Y-94833333D01*
X119403785Y-94880952D01*
X119451404Y-94928571D01*
X119499023Y-95023809D01*
X119499023Y-95261904D01*
X119451404Y-95357142D01*
X119403785Y-95404761D01*
X119308547Y-95452380D01*
X119070452Y-95452380D01*
X118975214Y-95404761D01*
X118927595Y-95357142D01*
X120356166Y-94452380D02*
X120165690Y-94452380D01*
X120070452Y-94500000D01*
X120022833Y-94547619D01*
X119927595Y-94690476D01*
X119879976Y-94880952D01*
X119879976Y-95261904D01*
X119927595Y-95357142D01*
X119975214Y-95404761D01*
X120070452Y-95452380D01*
X120260928Y-95452380D01*
X120356166Y-95404761D01*
X120403785Y-95357142D01*
X120451404Y-95261904D01*
X120451404Y-95023809D01*
X120403785Y-94928571D01*
X120356166Y-94880952D01*
X120260928Y-94833333D01*
X120070452Y-94833333D01*
X119975214Y-94880952D01*
X119927595Y-94928571D01*
X119879976Y-95023809D01*
X107761904Y-83952380D02*
X107761904Y-82952380D01*
X108000000Y-82952380D01*
X108142857Y-83000000D01*
X108238095Y-83095238D01*
X108285714Y-83190476D01*
X108333333Y-83380952D01*
X108333333Y-83523809D01*
X108285714Y-83714285D01*
X108238095Y-83809523D01*
X108142857Y-83904761D01*
X108000000Y-83952380D01*
X107761904Y-83952380D01*
X109190476Y-82952380D02*
X109000000Y-82952380D01*
X108904761Y-83000000D01*
X108857142Y-83047619D01*
X108761904Y-83190476D01*
X108714285Y-83380952D01*
X108714285Y-83761904D01*
X108761904Y-83857142D01*
X108809523Y-83904761D01*
X108904761Y-83952380D01*
X109095238Y-83952380D01*
X109190476Y-83904761D01*
X109238095Y-83857142D01*
X109285714Y-83761904D01*
X109285714Y-83523809D01*
X109238095Y-83428571D01*
X109190476Y-83380952D01*
X109095238Y-83333333D01*
X108904761Y-83333333D01*
X108809523Y-83380952D01*
X108761904Y-83428571D01*
X108714285Y-83523809D01*
X105541380Y-83296023D02*
X106255666Y-83296023D01*
X106398523Y-83343642D01*
X106493761Y-83438880D01*
X106541380Y-83581738D01*
X106541380Y-83676976D01*
X106541380Y-82296023D02*
X106541380Y-82867452D01*
X106541380Y-82581738D02*
X105541380Y-82581738D01*
X105684238Y-82676976D01*
X105779476Y-82772214D01*
X105827095Y-82867452D01*
X105541380Y-81676976D02*
X105541380Y-81581738D01*
X105589000Y-81486500D01*
X105636619Y-81438880D01*
X105731857Y-81391261D01*
X105922333Y-81343642D01*
X106160428Y-81343642D01*
X106350904Y-81391261D01*
X106446142Y-81438880D01*
X106493761Y-81486500D01*
X106541380Y-81581738D01*
X106541380Y-81676976D01*
X106493761Y-81772214D01*
X106446142Y-81819833D01*
X106350904Y-81867452D01*
X106160428Y-81915071D01*
X105922333Y-81915071D01*
X105731857Y-81867452D01*
X105636619Y-81819833D01*
X105589000Y-81772214D01*
X105541380Y-81676976D01*
X127282380Y-80809523D02*
X127996666Y-80809523D01*
X128139523Y-80857142D01*
X128234761Y-80952380D01*
X128282380Y-81095238D01*
X128282380Y-81190476D01*
X128282380Y-79809523D02*
X128282380Y-80380952D01*
X128282380Y-80095238D02*
X127282380Y-80095238D01*
X127425238Y-80190476D01*
X127520476Y-80285714D01*
X127568095Y-80380952D01*
X128282380Y-78857142D02*
X128282380Y-79428571D01*
X128282380Y-79142857D02*
X127282380Y-79142857D01*
X127425238Y-79238095D01*
X127520476Y-79333333D01*
X127568095Y-79428571D01*
X126690476Y-124952380D02*
X126690476Y-125666666D01*
X126642857Y-125809523D01*
X126547619Y-125904761D01*
X126404761Y-125952380D01*
X126309523Y-125952380D01*
X127690476Y-125952380D02*
X127119047Y-125952380D01*
X127404761Y-125952380D02*
X127404761Y-124952380D01*
X127309523Y-125095238D01*
X127214285Y-125190476D01*
X127119047Y-125238095D01*
X128071428Y-125047619D02*
X128119047Y-125000000D01*
X128214285Y-124952380D01*
X128452380Y-124952380D01*
X128547619Y-125000000D01*
X128595238Y-125047619D01*
X128642857Y-125142857D01*
X128642857Y-125238095D01*
X128595238Y-125380952D01*
X128023809Y-125952380D01*
X128642857Y-125952380D01*
X123821986Y-91666666D02*
X123821986Y-92142857D01*
X122821986Y-92142857D01*
X123155320Y-90904761D02*
X123821986Y-90904761D01*
X122774367Y-91142857D02*
X123488653Y-91380952D01*
X123488653Y-90761904D01*
X119333333Y-93952380D02*
X118857142Y-93952380D01*
X118857142Y-92952380D01*
X120142857Y-92952380D02*
X119666666Y-92952380D01*
X119619047Y-93428571D01*
X119666666Y-93380952D01*
X119761904Y-93333333D01*
X120000000Y-93333333D01*
X120095238Y-93380952D01*
X120142857Y-93428571D01*
X120190476Y-93523809D01*
X120190476Y-93761904D01*
X120142857Y-93857142D01*
X120095238Y-93904761D01*
X120000000Y-93952380D01*
X119761904Y-93952380D01*
X119666666Y-93904761D01*
X119619047Y-93857142D01*
X115323880Y-97734214D02*
X114657214Y-97734214D01*
X114752452Y-97734214D02*
X114704833Y-97686595D01*
X114657214Y-97591357D01*
X114657214Y-97448500D01*
X114704833Y-97353261D01*
X114800071Y-97305642D01*
X115323880Y-97305642D01*
X114800071Y-97305642D02*
X114704833Y-97258023D01*
X114657214Y-97162785D01*
X114657214Y-97019928D01*
X114704833Y-96924690D01*
X114800071Y-96877071D01*
X115323880Y-96877071D01*
X115276261Y-95972309D02*
X115323880Y-96067547D01*
X115323880Y-96258023D01*
X115276261Y-96353261D01*
X115228642Y-96400880D01*
X115133404Y-96448500D01*
X114847690Y-96448500D01*
X114752452Y-96400880D01*
X114704833Y-96353261D01*
X114657214Y-96258023D01*
X114657214Y-96067547D01*
X114704833Y-95972309D01*
X114657214Y-95115166D02*
X115323880Y-95115166D01*
X114657214Y-95543738D02*
X115181023Y-95543738D01*
X115276261Y-95496119D01*
X115323880Y-95400880D01*
X115323880Y-95258023D01*
X115276261Y-95162785D01*
X115228642Y-95115166D01*
X114419119Y-94686595D02*
X114371500Y-94638976D01*
X114323880Y-94543738D01*
X114323880Y-94305642D01*
X114371500Y-94210404D01*
X114419119Y-94162785D01*
X114514357Y-94115166D01*
X114609595Y-94115166D01*
X114752452Y-94162785D01*
X115323880Y-94734214D01*
X115323880Y-94115166D01*
X115952380Y-109512656D02*
X115476190Y-109845989D01*
X115952380Y-110084084D02*
X114952380Y-110084084D01*
X114952380Y-109703132D01*
X115000000Y-109607894D01*
X115047619Y-109560275D01*
X115142857Y-109512656D01*
X115285714Y-109512656D01*
X115380952Y-109560275D01*
X115428571Y-109607894D01*
X115476190Y-109703132D01*
X115476190Y-110084084D01*
X115952380Y-108560275D02*
X115952380Y-109131703D01*
X115952380Y-108845989D02*
X114952380Y-108845989D01*
X115095238Y-108941227D01*
X115190476Y-109036465D01*
X115238095Y-109131703D01*
X115047619Y-108179322D02*
X115000000Y-108131703D01*
X114952380Y-108036465D01*
X114952380Y-107798370D01*
X115000000Y-107703132D01*
X115047619Y-107655513D01*
X115142857Y-107607894D01*
X115238095Y-107607894D01*
X115380952Y-107655513D01*
X115952380Y-108226941D01*
X115952380Y-107607894D01*
X109466142Y-114344380D02*
X109132809Y-113868190D01*
X108894714Y-114344380D02*
X108894714Y-113344380D01*
X109275666Y-113344380D01*
X109370904Y-113392000D01*
X109418523Y-113439619D01*
X109466142Y-113534857D01*
X109466142Y-113677714D01*
X109418523Y-113772952D01*
X109370904Y-113820571D01*
X109275666Y-113868190D01*
X108894714Y-113868190D01*
X110418523Y-114344380D02*
X109847095Y-114344380D01*
X110132809Y-114344380D02*
X110132809Y-113344380D01*
X110037571Y-113487238D01*
X109942333Y-113582476D01*
X109847095Y-113630095D01*
X110751857Y-113344380D02*
X111370904Y-113344380D01*
X111037571Y-113725333D01*
X111180428Y-113725333D01*
X111275666Y-113772952D01*
X111323285Y-113820571D01*
X111370904Y-113915809D01*
X111370904Y-114153904D01*
X111323285Y-114249142D01*
X111275666Y-114296761D01*
X111180428Y-114344380D01*
X110894714Y-114344380D01*
X110799476Y-114296761D01*
X110751857Y-114249142D01*
X112085380Y-105735357D02*
X111609190Y-106068690D01*
X112085380Y-106306785D02*
X111085380Y-106306785D01*
X111085380Y-105925833D01*
X111133000Y-105830595D01*
X111180619Y-105782976D01*
X111275857Y-105735357D01*
X111418714Y-105735357D01*
X111513952Y-105782976D01*
X111561571Y-105830595D01*
X111609190Y-105925833D01*
X111609190Y-106306785D01*
X112085380Y-104782976D02*
X112085380Y-105354404D01*
X112085380Y-105068690D02*
X111085380Y-105068690D01*
X111228238Y-105163928D01*
X111323476Y-105259166D01*
X111371095Y-105354404D01*
X111513952Y-104211547D02*
X111466333Y-104306785D01*
X111418714Y-104354404D01*
X111323476Y-104402023D01*
X111275857Y-104402023D01*
X111180619Y-104354404D01*
X111133000Y-104306785D01*
X111085380Y-104211547D01*
X111085380Y-104021071D01*
X111133000Y-103925833D01*
X111180619Y-103878214D01*
X111275857Y-103830595D01*
X111323476Y-103830595D01*
X111418714Y-103878214D01*
X111466333Y-103925833D01*
X111513952Y-104021071D01*
X111513952Y-104211547D01*
X111561571Y-104306785D01*
X111609190Y-104354404D01*
X111704428Y-104402023D01*
X111894904Y-104402023D01*
X111990142Y-104354404D01*
X112037761Y-104306785D01*
X112085380Y-104211547D01*
X112085380Y-104021071D01*
X112037761Y-103925833D01*
X111990142Y-103878214D01*
X111894904Y-103830595D01*
X111704428Y-103830595D01*
X111609190Y-103878214D01*
X111561571Y-103925833D01*
X111513952Y-104021071D01*
X107357142Y-86452380D02*
X107023809Y-85976190D01*
X106785714Y-86452380D02*
X106785714Y-85452380D01*
X107166666Y-85452380D01*
X107261904Y-85500000D01*
X107309523Y-85547619D01*
X107357142Y-85642857D01*
X107357142Y-85785714D01*
X107309523Y-85880952D01*
X107261904Y-85928571D01*
X107166666Y-85976190D01*
X106785714Y-85976190D01*
X107738095Y-85547619D02*
X107785714Y-85500000D01*
X107880952Y-85452380D01*
X108119047Y-85452380D01*
X108214285Y-85500000D01*
X108261904Y-85547619D01*
X108309523Y-85642857D01*
X108309523Y-85738095D01*
X108261904Y-85880952D01*
X107690476Y-86452380D01*
X108309523Y-86452380D01*
X108928571Y-85452380D02*
X109023809Y-85452380D01*
X109119047Y-85500000D01*
X109166666Y-85547619D01*
X109214285Y-85642857D01*
X109261904Y-85833333D01*
X109261904Y-86071428D01*
X109214285Y-86261904D01*
X109166666Y-86357142D01*
X109119047Y-86404761D01*
X109023809Y-86452380D01*
X108928571Y-86452380D01*
X108833333Y-86404761D01*
X108785714Y-86357142D01*
X108738095Y-86261904D01*
X108690476Y-86071428D01*
X108690476Y-85833333D01*
X108738095Y-85642857D01*
X108785714Y-85547619D01*
X108833333Y-85500000D01*
X108928571Y-85452380D01*
X109354880Y-102687357D02*
X108878690Y-103020690D01*
X109354880Y-103258785D02*
X108354880Y-103258785D01*
X108354880Y-102877833D01*
X108402500Y-102782595D01*
X108450119Y-102734976D01*
X108545357Y-102687357D01*
X108688214Y-102687357D01*
X108783452Y-102734976D01*
X108831071Y-102782595D01*
X108878690Y-102877833D01*
X108878690Y-103258785D01*
X108450119Y-102306404D02*
X108402500Y-102258785D01*
X108354880Y-102163547D01*
X108354880Y-101925452D01*
X108402500Y-101830214D01*
X108450119Y-101782595D01*
X108545357Y-101734976D01*
X108640595Y-101734976D01*
X108783452Y-101782595D01*
X109354880Y-102354023D01*
X109354880Y-101734976D01*
X109354880Y-100782595D02*
X109354880Y-101354023D01*
X109354880Y-101068309D02*
X108354880Y-101068309D01*
X108497738Y-101163547D01*
X108592976Y-101258785D01*
X108640595Y-101354023D01*
X105608380Y-102687357D02*
X105132190Y-103020690D01*
X105608380Y-103258785D02*
X104608380Y-103258785D01*
X104608380Y-102877833D01*
X104656000Y-102782595D01*
X104703619Y-102734976D01*
X104798857Y-102687357D01*
X104941714Y-102687357D01*
X105036952Y-102734976D01*
X105084571Y-102782595D01*
X105132190Y-102877833D01*
X105132190Y-103258785D01*
X104703619Y-102306404D02*
X104656000Y-102258785D01*
X104608380Y-102163547D01*
X104608380Y-101925452D01*
X104656000Y-101830214D01*
X104703619Y-101782595D01*
X104798857Y-101734976D01*
X104894095Y-101734976D01*
X105036952Y-101782595D01*
X105608380Y-102354023D01*
X105608380Y-101734976D01*
X104703619Y-101354023D02*
X104656000Y-101306404D01*
X104608380Y-101211166D01*
X104608380Y-100973071D01*
X104656000Y-100877833D01*
X104703619Y-100830214D01*
X104798857Y-100782595D01*
X104894095Y-100782595D01*
X105036952Y-100830214D01*
X105608380Y-101401642D01*
X105608380Y-100782595D01*
X112952380Y-83690476D02*
X112476190Y-84023809D01*
X112952380Y-84261904D02*
X111952380Y-84261904D01*
X111952380Y-83880952D01*
X112000000Y-83785714D01*
X112047619Y-83738095D01*
X112142857Y-83690476D01*
X112285714Y-83690476D01*
X112380952Y-83738095D01*
X112428571Y-83785714D01*
X112476190Y-83880952D01*
X112476190Y-84261904D01*
X112952380Y-83261904D02*
X111952380Y-83261904D01*
X112952380Y-82690476D01*
X111952380Y-82690476D01*
X112285714Y-81785714D02*
X112952380Y-81785714D01*
X111904761Y-82023809D02*
X112619047Y-82261904D01*
X112619047Y-81642857D01*
X100338023Y-96464380D02*
X100004690Y-95988190D01*
X99766595Y-96464380D02*
X99766595Y-95464380D01*
X100147547Y-95464380D01*
X100242785Y-95512000D01*
X100290404Y-95559619D01*
X100338023Y-95654857D01*
X100338023Y-95797714D01*
X100290404Y-95892952D01*
X100242785Y-95940571D01*
X100147547Y-95988190D01*
X99766595Y-95988190D01*
X100766595Y-96464380D02*
X100766595Y-95464380D01*
X101338023Y-96464380D01*
X101338023Y-95464380D01*
X102290404Y-95464380D02*
X101814214Y-95464380D01*
X101766595Y-95940571D01*
X101814214Y-95892952D01*
X101909452Y-95845333D01*
X102147547Y-95845333D01*
X102242785Y-95892952D01*
X102290404Y-95940571D01*
X102338023Y-96035809D01*
X102338023Y-96273904D01*
X102290404Y-96369142D01*
X102242785Y-96416761D01*
X102147547Y-96464380D01*
X101909452Y-96464380D01*
X101814214Y-96416761D01*
X101766595Y-96369142D01*
X100465023Y-93860880D02*
X100131690Y-93384690D01*
X99893595Y-93860880D02*
X99893595Y-92860880D01*
X100274547Y-92860880D01*
X100369785Y-92908500D01*
X100417404Y-92956119D01*
X100465023Y-93051357D01*
X100465023Y-93194214D01*
X100417404Y-93289452D01*
X100369785Y-93337071D01*
X100274547Y-93384690D01*
X99893595Y-93384690D01*
X100893595Y-93860880D02*
X100893595Y-92860880D01*
X101465023Y-93860880D01*
X101465023Y-92860880D01*
X102369785Y-92860880D02*
X102179309Y-92860880D01*
X102084071Y-92908500D01*
X102036452Y-92956119D01*
X101941214Y-93098976D01*
X101893595Y-93289452D01*
X101893595Y-93670404D01*
X101941214Y-93765642D01*
X101988833Y-93813261D01*
X102084071Y-93860880D01*
X102274547Y-93860880D01*
X102369785Y-93813261D01*
X102417404Y-93765642D01*
X102465023Y-93670404D01*
X102465023Y-93432309D01*
X102417404Y-93337071D01*
X102369785Y-93289452D01*
X102274547Y-93241833D01*
X102084071Y-93241833D01*
X101988833Y-93289452D01*
X101941214Y-93337071D01*
X101893595Y-93432309D01*
X112761904Y-112452380D02*
X112761904Y-113261904D01*
X112809523Y-113357142D01*
X112857142Y-113404761D01*
X112952380Y-113452380D01*
X113142857Y-113452380D01*
X113238095Y-113404761D01*
X113285714Y-113357142D01*
X113333333Y-113261904D01*
X113333333Y-112452380D01*
X114333333Y-113452380D02*
X113761904Y-113452380D01*
X114047619Y-113452380D02*
X114047619Y-112452380D01*
X113952380Y-112595238D01*
X113857142Y-112690476D01*
X113761904Y-112738095D01*
X114952380Y-112452380D02*
X115047619Y-112452380D01*
X115142857Y-112500000D01*
X115190476Y-112547619D01*
X115238095Y-112642857D01*
X115285714Y-112833333D01*
X115285714Y-113071428D01*
X115238095Y-113261904D01*
X115190476Y-113357142D01*
X115142857Y-113404761D01*
X115047619Y-113452380D01*
X114952380Y-113452380D01*
X114857142Y-113404761D01*
X114809523Y-113357142D01*
X114761904Y-113261904D01*
X114714285Y-113071428D01*
X114714285Y-112833333D01*
X114761904Y-112642857D01*
X114809523Y-112547619D01*
X114857142Y-112500000D01*
X114952380Y-112452380D01*
X111545690Y-108172190D02*
X112021880Y-108172190D01*
X111021880Y-108505523D02*
X111545690Y-108172190D01*
X111021880Y-107838857D01*
X111355214Y-107076952D02*
X112021880Y-107076952D01*
X110974261Y-107315047D02*
X111688547Y-107553142D01*
X111688547Y-106934095D01*
X53238095Y-117752380D02*
X53238095Y-116752380D01*
X53238095Y-117228571D02*
X53809523Y-117228571D01*
X53809523Y-117752380D02*
X53809523Y-116752380D01*
X54809523Y-117752380D02*
X54238095Y-117752380D01*
X54523809Y-117752380D02*
X54523809Y-116752380D01*
X54428571Y-116895238D01*
X54333333Y-116990476D01*
X54238095Y-117038095D01*
X117738095Y-119752380D02*
X117738095Y-118752380D01*
X117738095Y-119228571D02*
X118309523Y-119228571D01*
X118309523Y-119752380D02*
X118309523Y-118752380D01*
X118738095Y-118847619D02*
X118785714Y-118800000D01*
X118880952Y-118752380D01*
X119119047Y-118752380D01*
X119214285Y-118800000D01*
X119261904Y-118847619D01*
X119309523Y-118942857D01*
X119309523Y-119038095D01*
X119261904Y-119180952D01*
X118690476Y-119752380D01*
X119309523Y-119752380D01*
X52435151Y-76949436D02*
X52435151Y-75949436D01*
X52435151Y-76425627D02*
X53006579Y-76425627D01*
X53006579Y-76949436D02*
X53006579Y-75949436D01*
X53387532Y-75949436D02*
X54006579Y-75949436D01*
X53673246Y-76330389D01*
X53816103Y-76330389D01*
X53911341Y-76378008D01*
X53958960Y-76425627D01*
X54006579Y-76520865D01*
X54006579Y-76758960D01*
X53958960Y-76854198D01*
X53911341Y-76901817D01*
X53816103Y-76949436D01*
X53530389Y-76949436D01*
X53435151Y-76901817D01*
X53387532Y-76854198D01*
X130238095Y-76252380D02*
X130238095Y-75252380D01*
X130238095Y-75728571D02*
X130809523Y-75728571D01*
X130809523Y-76252380D02*
X130809523Y-75252380D01*
X131714285Y-75585714D02*
X131714285Y-76252380D01*
X131476190Y-75204761D02*
X131238095Y-75919047D01*
X131857142Y-75919047D01*
M02*
